0, -40.00, 0.00, -0.99, 1, 0, 0, 0, 0, -0.0141, 0.0509, -1010, 1, 27.00
11:56:43.269 -> 0, -40.00, 0.00, -0.99, 1, 0, 0, 0, 0, -0.0141, 0.0509, -1010, 0, 27.00
11:56:43.303 -> 0, -40.00, 0.00, -0.99, 1, 0, 0, 0, 0, -0.0141, 0.0509, -1010, 0, 27.00
11:56:43.303 -> 0, -40.00, 0.00, -0.99, 1, 0, 0, 0, 0, -0.0141, 0.0509, -1016, 0, 27.00
11:56:43.336 -> 0, -40.00, 0.00, -0.99, 1, 0, 0, 0, 0, -0.0141, 0.0505, -1021, 0, 28.00
11:56:43.369 -> 0, -40.00, 0.00, -0.99, 1, 0, 0, 0, 0, -0.0141, 0.0505, -1021, 0, 28.00
11:56:43.369 -> 0, -40.00, 0.00, -0.99, 1, 0, 0, 0, 0, -0.0141, 0.0505, -1004, 0, 28.00
11:56:43.402 -> 0, -40.00, 0.00, -0.99, 1, 0, 0, 0, 0, -0.0141, 0.0505, -1004, 0, 28.00
11:56:43.435 -> 0, -40.00, 0.00, 0.02, 1, 0, 0, 0, 0, -0.0141, 0.0505, -1004, 0, 28.00
11:56:43.435 -> 0, -40.00, 0.00, 0.02, 1, 0, 0, 0, 0, -0.0141, 0.0505, -1004, 0, 28.00
11:56:43.468 -> 0, -40.00, 0.00, 0.02, 1, 0, 0, 0, 0, -0.0142, 0.0504, -1014, 0, 28.00
11:56:43.501 -> 0, -40.00, 0.00, 0.02, 1, 0, 0, 0, 0, -0.0142, 0.0504, -1014, 0, 28.00
11:56:43.501 -> 0, -40.00, 0.00, 0.02, 1, 0, 0, 0, 0, -0.0142, 0.0504, -1011, 0, 28.00
11:56:43.535 -> 0, -40.00, 0.00, 0.02, 1, 0, 0, 0, 0, -0.0142, 0.0504, -1010, 0, 28.00
11:56:43.535 -> 0, -40.00, 0.00, 0.02, 1, 0, 0, 0, 0, -0.0142, 0.0504, -1010, 0, 28.00
11:56:43.568 -> 0, -40.00, 0.00, 0.02, 1, 0, 0, 0, 0, -0.0142, 0.0504, -1010, 0, 28.00
11:56:43.601 -> 0, -40.00, 0.00, 0.02, 1, 0, 0, 0, 0, -0.0143, 0.0503, -1015, 0, 28.00
11:56:43.601 -> 0, -40.00, 0.00, 0.02, 1, 0, 0, 0, 0, -0.0143, 0.0503, -1017, 0, 28.00
11:56:43.634 -> 0, -40.00, 0.00, 0.02, 1, 0, 0, 0, 0, -0.0143, 0.0503, -1017, 0, 28.00
11:56:43.668 -> 0, -40.00, 0.00, 0.02, 1, 0, 0, 0, 0, -0.0143, 0.0503, -1005, 0, 28.00
11:56:43.668 -> 0, -40.00, 0.00, 0.02, 1, 0, 0, 0, 0, -0.0143, 0.0503, -1005, 0, 28.00
11:56:43.701 -> 0, -40.00, 0.00, 0.02, 1, 0, 0, 0, 0, -0.0143, 0.0503, -1012, 0, 28.00
11:56:43.734 -> 0, -40.00, 0.00, 0.02, 1, 0, 0, 0, 0, -0.0141, 0.0503, -1012, 0, 28.00
11:56:43.734 -> 0, -40.00, 0.00, 0.02, 1, 0, 0, 0, 0, -0.0141, 0.0503, -1013, 0, 28.00
11:56:43.767 -> 0, -40.00, 0.00, 0.02, 1, 0, 0, 0, 0, -0.0141, 0.0503, -1013, 0, 28.00
11:56:43.767 -> 0, -40.00, 0.00, 0.02, 1, 0, 0, 0, 0, -0.0141, 0.0503, -1020, 0, 28.00
11:56:43.800 -> 0, -40.00, 0.00, 0.02, 1, 0, 0, 0, 0, -0.0141, 0.0503, -1020, 0, 28.00
11:56:43.834 -> 0, -40.00, 0.00, 0.02, 1, 0, 0, 0, 0, -0.0141, 0.0503, -1007, 0, 28.00
11:56:43.834 -> 0, -40.00, 0.00, 0.02, 1, 0, 0, 0, 0, -0.0141, 0.0503, -1007, 0, 28.00
11:56:43.867 -> 0, -40.00, 0.00, 0.02, 1, 0, 0, 0, 0, -0.0140, 0.0503, -1013, 0, 28.00
11:56:43.908 -> 0, -40.00, 0.00, 0.02, 1, 0, 0, 0, 0, -0.0140, 0.0503, -1013, 0, 28.00
11:56:43.908 -> 0, -40.00, 0.00, 0.02, 1, 0, 0, 0, 0, -0.0140, 0.0503, -1014, 0, 28.00
11:56:43.955 -> 0, -40.00, 0.00, 0.02, 1, 0, 0, 0, 0, -0.0140, 0.0503, -1014, 0, 28.00
11:56:43.955 -> 0, -40.00, 0.00, 0.02, 1, 0, 0, 0, 0, -0.0140, 0.0503, -1012, 0, 28.00
11:56:43.955 -> 0, -40.00, 0.00, 0.02, 1, 0, 0, 0, 0, -0.0140, 0.0503, -1017, 0, 28.00
11:56:43.991 -> 0, -40.00, 0.00, 0.02, 1, 0, 0, 0, 0, -0.0140, 0.0502, -1017, 0, 28.00
11:56:44.026 -> 0, -40.00, 0.00, 0.02, 1, 0, 0, 0, 0, -0.0140, 0.0502, -1015, 0, 28.00
11:56:44.026 -> 0, -40.00, 0.00, 0.02, 1, 0, 0, 0, 0, -0.0140, 0.0502, -1015, 0, 28.00
11:56:44.062 -> 0, -40.00, 0.00, 0.02, 1, 0, 0, 0, 0, -0.0140, 0.0502, -1009, 0, 28.00
11:56:44.062 -> 0, -40.00, 0.00, 0.02, 1, 0, 0, 0, 0, -0.0140, 0.0502, -1009, 0, 28.00
11:56:44.103 -> 0, -40.00, 0.00, 0.02, 1, 0, 0, 0, 0, -0.0140, 0.0502, -1012, 0, 28.00
11:56:44.103 -> 0, -40.00, 0.00, 0.02, 1, 0, 0, 0, 0, -0.0140, 0.0502, -1012, 0, 28.00
11:56:44.132 -> 0, -40.00, 0.00, 0.02, 1, 0, 0, 0, 0, -0.0140, 0.0500, -1013, 0, 28.00
11:56:44.166 -> 0, -40.00, 0.00, 0.02, 1, 0, 0, 0, 0, -0.0140, 0.0500, -1013, 0, 28.00
11:56:44.166 -> 0, -40.00, 0.00, 0.02, 1, 0, 0, 0, 0, -0.0140, 0.0500, -1007, 0, 28.00
11:56:44.199 -> 0, -40.00, 0.00, 0.02, 1, 0, 0, 0, 0, -0.0140, 0.0500, -1007, 0, 28.00
11:56:44.240 -> 0, -40.00, 0.00, 0.03, 1, 0, 0, 0, 0, -0.0140, 0.0500, -1007, 0, 28.00
11:56:44.240 -> 0, -40.00, 0.00, 0.03, 1, 0, 0, 0, 0, -0.0140, 0.0500, -1007, 0, 28.00
11:56:44.272 -> 0, -40.00, 0.00, 0.03, 1, 0, 0, 0, 0, -0.0140, 0.0500, -1019, 0, 28.00
11:56:44.272 -> 0, -40.00, 0.00, 0.03, 1, 0, 0, 0, 0, -0.0143, 0.0503, -1021, 0, 28.00
11:56:44.308 -> 0, -40.00, 0.00, 0.03, 1, 0, 0, 0, 0, -0.0143, 0.0503, -1001, 0, 28.00
11:56:44.332 -> 0, -40.00, 0.00, 0.02, 1, 0, 0, 0, 0, -0.0143, 0.0503, -1001, 0, 28.00
11:56:44.332 -> 0, -40.00, 0.00, 0.02, 1, 0, 0, 0, 0, -0.0143, 0.0503, -1016, 0, 28.00
11:56:44.365 -> 0, -40.00, 0.00, 0.02, 1, 0, 0, 0, 0, -0.0143, 0.0503, -1016, 0, 28.00
11:56:44.398 -> 0, -40.00, 0.00, 0.02, 1, 0, 0, 0, 0, -0.0143, 0.0503, -1009, 0, 28.00
11:56:44.398 -> 0, -40.00, 0.00, 0.02, 1, 0, 0, 0, 0, -0.0143, 0.0503, -1009, 0, 28.00
11:56:44.437 -> 0, -40.00, 0.00, 0.02, 1, 0, 0, 0, 0, -0.0147, 0.0493, -1015, 0, 28.00
11:56:44.437 -> 0, -40.00, 0.00, 0.02, 1, 0, 0, 0, 0, -0.0147, 0.0493, -999, 0, 28.00
11:56:44.464 -> 0, -40.00, 0.00, 0.02, 1, 0, 0, 0, 0, -0.0147, 0.0493, -999, 0, 28.00
11:56:44.497 -> 0, -40.00, 0.00, 0.02, 1, 0, 0, 0, 0, -0.0147, 0.0493, -999, 0, 28.00
11:56:44.530 -> 0, -40.00, 0.00, 0.02, 1, 0, 0, 0, 0, -0.0147, 0.0501, -1035, 0, 28.00
11:56:44.530 -> 0, -40.00, 0.00, 0.02, 1, 0, 0, 0, 0, -0.0147, 0.0501, -1026, 0, 27.00
11:56:44.563 -> 0, -40.00, 0.00, 0.02, 1, 0, 0, 0, 0, -0.0147, 0.0501, -1026, 0, 27.00
11:56:44.563 -> 0, -40.00, 0.00, 0.02, 1, 0, 0, 0, 0, -0.0147, 0.0501, -1026, 0, 27.00
11:56:44.597 -> 0, -40.00, 0.00, 0.02, 1, 0, 0, 0, 0, -0.0147, 0.0501, -1016, 0, 27.00
11:56:44.630 -> 0, -40.00, 0.00, -0.98, 1, 0, 0, 0, 0, -0.0147, 0.0501, -1031, 0, 27.00
11:56:44.630 -> 0, -40.00, 0.00, -0.98, 1, 0, 0, 0, 0, -0.0147, 0.0501, -1031, 0, 27.00
11:56:44.663 -> 0, -40.00, 0.00, -0.98, 1, 0, 0, 0, 0, -0.0147, 0.0501, -1003, 0, 27.00
11:56:44.696 -> 0, -40.00, 0.00, -0.98, 1, 0, 0, 0, 0, -0.0147, 0.0501, -1003, 0, 27.00
11:56:44.696 -> 0, -40.00, 0.00, -0.98, 1, 0, 0, 0, 0, -0.0147, 0.0501, -1011, 0, 27.00
11:56:44.729 -> 0, -40.00, 0.00, -0.96, 1, 0, 0, 0, 0, -0.0153, 0.0486, -1011, 0, 27.00
11:56:44.762 -> 0, -40.00, 0.00, -0.96, 1, 0, 0, 0, 0, -0.0153, 0.0486, -1038, 0, 27.00
11:56:44.762 -> 0, -40.00, 0.00, -0.96, 1, 0, 0, 0, 0, -0.0153, 0.0486, -1038, 0, 27.00
11:56:44.795 -> 0, -40.00, 0.00, -0.96, 1, 0, 0, 0, 0, -0.0153, 0.0486, -1063, 0, 27.00
11:56:44.795 -> 0, -40.00, 0.00, -0.96, 1, 0, 0, 0, 0, -0.0153, 0.0486, -956, 0, 27.00
11:56:44.828 -> 0, -40.00, 0.00, -1.08, 1, 0, 0, 0, 0, -0.0172, 0.0545, -956, 0, 27.00
11:56:44.861 -> 0, -40.00, 0.00, -1.08, 1, 0, 0, 0, 0, -0.0172, 0.0545, -956, 0, 28.00
11:56:44.861 -> 0, -40.00, 0.00, -1.08, 1, 0, 0, 0, 0, -0.0172, 0.0545, -1077, 0, 28.00
11:56:44.895 -> 0, -40.00, 0.00, -1.08, 1, 0, 0, 0, 0, -0.0172, 0.0545, -1077, 0, 28.00
11:56:44.928 -> 0, -40.00, 0.00, -1.08, 1, 0, 0, 0, 0, -0.0172, 0.0545, -987, 0, 28.00
11:56:44.928 -> 0, -40.00, 0.00, -0.08, 1, 0, 0, 0, 0, -0.0172, 0.0545, -1051, 0, 28.00
11:56:44.961 -> 0, -40.00, 0.00, -0.08, 1, 0, 0, 0, 0, -0.0170, 0.0581, -1051, 0, 28.00
11:56:44.961 -> 0, -40.00, 0.00, -0.08, 1, 0, 0, 0, 0, -0.0170, 0.0581, -1053, 0, 28.00
11:56:44.994 -> 0, -40.00, 0.00, -0.08, 1, 0, 0, 0, 0, -0.0170, 0.0581, -1053, 0, 28.00
11:56:45.027 -> 0, -40.00, 0.00, -0.08, 1, 0, 0, 0, 0, -0.0170, 0.0581, -1096, 0, 28.00
11:56:45.027 -> 0, -40.00, 0.00, -0.14, 1, 0, 0, 0, 0, -0.0170, 0.0581, -1096, 0, 28.00
11:56:45.060 -> 0, -40.00, 0.00, -0.14, 1, 0, 0, 0, 0, -0.0170, 0.0581, -1118, 0, 28.00
11:56:45.093 -> 0, -40.00, 0.00, -0.14, 1, 0, 0, 0, 0, -0.0170, 0.0581, -1118, 0, 28.00
11:56:45.093 -> 0, -40.00, 0.00, -0.14, 1, 0, 0, 0, 0, -0.0235, 0.0212, -1107, 0, 28.00
11:56:45.126 -> 0, -40.00, 0.00, 0.40, 1, 0, 0, 0, 0, -0.0235, 0.0212, -1107, 0, 28.00
11:56:45.160 -> 0, -40.00, 0.00, 0.40, 1, 0, 0, 0, 0, -0.0235, 0.0212, -1154, 0, 28.00
11:56:45.160 -> 0, -40.00, 0.00, 0.40, 1, 0, 0, 0, 0, -0.0235, 0.0212, -1154, 0, 28.00
11:56:45.193 -> 0, -40.00, 0.00, 0.40, 1, 0, 0, 0, 0, -0.0235, 0.0212, -1130, 0, 28.00
11:56:45.193 -> 0, -40.00, 0.00, 0.40, 1, 0, 0, 0, 0, -0.0303, -0.0282, -1130, 0, 28.00
11:56:45.226 -> 0, -40.00, 0.00, 0.22, 4, 0, 0, 0, 0, -0.0303, -0.0282, -1063, 0, 28.00
11:56:45.259 -> 0, -40.00, 0.00, 0.22, 4, 0, 0, 0, 0, -0.0303, -0.0282, -1063, 0, 28.00
11:56:45.259 -> 0, -40.00, 0.00, 0.22, 4, 0, 0, 0, 0, -0.0303, -0.0282, -1063, 0, 28.00
11:56:45.292 -> 0, -40.00, 0.00, 0.22, 4, 0, 0, 0, 0, -0.0303, -0.0282, -1063, 0, 31.00
11:56:45.325 -> 0, -40.00, 0.00, 0.22, 4, 0, 0, 0, 0, -0.0303, -0.0282, -919, 0, 31.00
11:56:45.325 -> 0, -40.00, 0.00, 3.21, 4, 0, 0, 0, 0, -0.0303, -0.0702, -887, 0, 31.00
11:56:45.358 -> 0, -40.00, 0.00, 3.21, 4, 0, 0, 0, 0, -0.0303, -0.0702, -887, 0, 31.00
11:56:45.392 -> 0, -40.00, 0.00, 3.21, 4, 0, 0, 0, 0, -0.0303, -0.0702, -916, 0, 31.00
11:56:45.392 -> 0, -40.00, 0.00, 3.21, 4, 0, 0, 0, 0, -0.0303, -0.0702, -916, 0, 31.00
11:56:45.425 -> 0, -40.00, 0.00, 3.21, 4, 0, 0, 0, 0, -0.0303, -0.0702, -938, 0, 31.00
11:56:45.425 -> 0, -40.00, 0.00, 2.51, 4, 0, 0, 0, 0, -0.0303, -0.0702, -938, 0, 33.00
11:56:45.458 -> 0, -40.00, 0.00, 2.51, 4, 0, 0, 0, 0, -0.0260, -0.0803, -978, 0, 33.00
11:56:45.491 -> 0, -40.00, 0.00, 2.51, 4, 0, 0, 0, 0, -0.0260, -0.0803, -978, 0, 33.00
11:56:45.491 -> 0, -40.00, 0.00, 2.51, 4, 0, 0, 0, 0, -0.0260, -0.0803, -1067, 0, 33.00
11:56:45.524 -> 0, -40.00, 0.00, 2.51, 4, 0, 0, 0, 0, -0.0260, -0.0803, -1067, 0, 33.00
11:56:45.557 -> 0, -40.00, 0.00, 4.38, 4, 0, 0, 0, 0, -0.0260, -0.0803, -1043, 0, 33.00
11:56:45.557 -> 0, -40.00, 0.00, 4.38, 4, 0, 0, 0, 0, -0.0260, -0.0803, -1043, 0, 34.00
11:56:45.590 -> 0, -40.00, 0.00, 4.38, 4, 0, 0, 0, 0, -0.0260, -0.0803, -1043, 0, 34.00
11:56:45.623 -> 0, -40.00, 0.00, 4.38, 4, 0, 0, 0, 0, -0.0260, -0.0803, -1043, 0, 34.00
11:56:45.623 -> 0, -40.00, 0.00, 4.92, 4, 0, 0, 0, 0, -0.0328, -0.1027, -1035, 0, 34.00
11:56:45.656 -> 0, -40.00, 0.00, 4.92, 4, 0, 0, 0, 0, -0.0328, -0.1027, -1041, 0, 34.00
11:56:45.656 -> 0, -40.00, 0.00, 4.92, 4, 0, 0, 0, 0, -0.0328, -0.1027, -1041, 0, 34.00
11:56:45.690 -> 0, -40.00, 0.00, 4.92, 4, 0, 0, 0, 0, -0.0328, -0.1027, -1009, 0, 34.00
11:56:45.723 -> 0, -40.00, 0.00, 4.92, 4, 0, 0, 0, 0, -0.0328, -0.1027, -1009, 0, 34.00
11:56:45.723 -> 0, -40.00, 0.00, 4.92, 4, 0, 0, 0, 0, -0.0328, -0.1027, -1009, 0, 34.00
11:56:45.756 -> 0, -40.00, 0.00, 4.92, 4, 0, 0, 0, 0, -0.0328, -0.1027, -980, 0, 34.00
11:56:45.789 -> 0, -40.00, 0.00, 4.92, 4, 0, 0, 0, 0, -0.0430, -0.1235, -1018, 0, 34.00
11:56:45.789 -> 0, -40.00, 0.00, 4.92, 4, 0, 0, 0, 0, -0.0430, -0.1235, -1018, 0, 38.00
11:56:45.822 -> 0, -40.00, 0.00, 4.92, 4, 0, 0, 0, 0, -0.0430, -0.1235, -980, 0, 38.00
11:56:45.822 -> 0, -40.00, 0.00, 8.42, 4, 0, 0, 0, 0, -0.0430, -0.1235, -980, 0, 38.00
11:56:45.855 -> 0, -40.00, 0.00, 8.42, 4, 0, 0, 0, 0, -0.0430, -0.1235, -985, 0, 38.00
11:56:45.888 -> 0, -40.00, 0.00, 8.42, 4, 0, 0, 0, 0, -0.0430, -0.1235, -985, 0, 38.00
11:56:45.888 -> 0, -40.00, 0.00, 8.42, 4, 0, 0, 0, 0, -0.0430, -0.1235, -996, 0, 38.00
11:56:45.921 -> 0, -40.00, 0.00, 8.42, 4, 0, 0, 0, 0, -0.0398, -0.1463, -996, 0, 38.00
11:56:45.955 -> 0, -40.00, 0.00, 8.05, 4, 0, 0, 0, 0, -0.0398, -0.1463, -996, 0, 38.00
11:56:45.955 -> 0, -40.00, 0.00, 8.05, 4, 0, 0, 0, 0, -0.0398, -0.1463, -1005, 0, 38.00
11:56:45.988 -> 0, -40.00, 0.00, 8.05, 4, 0, 0, 0, 0, -0.0398, -0.1463, -1005, 0, 38.00
11:56:46.021 -> 0, -40.00, 0.00, 8.05, 4, 0, 0, 0, 0, -0.0398, -0.1463, -1005, 0, 38.00
11:56:46.021 -> 0, -40.00, 0.00, 8.05, 4, 0, 0, 0, 0, -0.0398, -0.1463, -1005, 0, 39.00
11:56:46.054 -> 0, -40.00, 0.00, 9.04, 4, 0, 0, 0, 0, -0.0398, -0.1463, -1008, 0, 39.00
11:56:46.054 -> 0, -40.00, 0.00, 9.04, 4, 0, 0, 0, 0, -0.0398, -0.1463, -989, 0, 39.00
11:56:46.087 -> 0, -40.00, 0.00, 9.04, 4, 0, 0, 0, 0, -0.0219, -0.1635, -989, 0, 39.00
11:56:46.120 -> 0, -40.00, 0.00, 9.04, 4, 0, 0, 0, 0, -0.0219, -0.1635, -983, 0, 39.00
11:56:46.120 -> 0, -40.00, 0.00, 9.04, 4, 0, 0, 0, 0, -0.0219, -0.1635, -965, 0, 39.00
11:56:46.154 -> 0, -40.00, 0.00, 8.92, 4, 0, 0, 0, 0, -0.0219, -0.1635, -965, 0, 39.00
11:56:46.187 -> 0, -40.00, 0.00, 8.92, 4, 0, 0, 0, 0, -0.0219, -0.1635, -965, 0, 42.00
11:56:46.187 -> 0, -40.00, 0.00, 8.92, 4, 0, 0, 0, 0, -0.0219, -0.1635, -965, 0, 42.00
11:56:46.220 -> 0, -40.00, 0.00, 8.92, 4, 0, 0, 0, 0, -0.0219, -0.1635, -940, 0, 42.00
11:56:46.254 -> 0, -40.00, 0.00, 11.57, 4, 0, 0, 0, 0, -0.0171, -0.1830, -940, 0, 42.00
11:56:46.254 -> 0, -40.00, 0.00, 11.57, 4, 0, 0, 0, 0, -0.0171, -0.1830, -940, 0, 42.00
11:56:46.286 -> 0, -40.00, 0.00, 11.57, 4, 0, 0, 0, 0, -0.0171, -0.1830, -971, 0, 42.00
11:56:46.286 -> 0, -40.00, 0.00, 11.57, 4, 0, 0, 0, 0, -0.0171, -0.1830, -970, 0, 42.00
11:56:46.319 -> 0, -40.00, 0.00, 11.57, 4, 0, 0, 0, 0, -0.0171, -0.1830, -970, 0, 42.00
11:56:46.352 -> 0, -40.00, 0.00, 11.57, 4, 0, 0, 0, 0, -0.0171, -0.1830, -982, 0, 42.00
11:56:46.352 -> 0, -40.00, 0.00, 11.57, 4, 0, 0, 0, 0, -0.0171, -0.1830, -982, 0, 42.00
11:56:46.385 -> 0, -40.00, 0.00, 11.57, 4, 0, 0, 0, 0, -0.0171, -0.1830, -1005, 0, 44.00
11:56:46.418 -> 0, -40.00, 0.00, 11.57, 4, 0, 0, 0, 0, -0.0202, -0.1810, -1005, 0, 44.00
11:56:46.418 -> 0, -40.00, 0.00, 11.57, 4, 0, 0, 0, 0, -0.0202, -0.1810, -960, 0, 44.00
11:56:46.452 -> 0, -40.00, 0.00, 13.54, 4, 0, 0, 0, 0, -0.0202, -0.1810, -960, 0, 44.00
11:56:46.452 -> 0, -40.00, 0.00, 13.54, 4, 0, 0, 0, 0, -0.0202, -0.1810, -999, 0, 44.00
11:56:46.485 -> 0, -40.00, 0.00, 13.54, 4, 0, 0, 0, 0, -0.0202, -0.1810, -999, 0, 46.00
11:56:46.518 -> 0, -40.00, 0.00, 13.54, 4, 0, 0, 0, 0, -0.0202, -0.1810, -1019, 0, 46.00
11:56:46.518 -> 0, -40.00, 0.00, 13.54, 4, 0, 0, 0, 0, -0.0202, -0.1810, -1013, 0, 46.00
11:56:46.551 -> 0, -40.00, 0.00, 15.67, 4, 0, 0, 0, 0, -0.0235, -0.1708, -1013, 0, 46.00
11:56:46.584 -> 0, -40.00, 0.00, 15.67, 4, 0, 0, 0, 0, -0.0235, -0.1708, -1013, 0, 46.00
11:56:46.584 -> 0, -40.00, 0.00, 15.67, 4, 0, 0, 0, 0, -0.0235, -0.1708, -1013, 0, 46.00
11:56:46.618 -> 0, -40.00, 0.00, 15.67, 4, 0, 0, 0, 0, -0.0235, -0.1708, -1005, 0, 46.00
11:56:46.651 -> 0, -40.00, 0.00, 15.67, 4, 0, 0, 0, 0, -0.0235, -0.1708, -1005, 0, 46.00
11:56:46.651 -> 0, -40.00, 0.00, 15.67, 4, 0, 0, 0, 0, -0.0235, -0.1708, -1005, 0, 46.00
11:56:46.684 -> 0, -40.00, 0.00, 15.67, 4, 0, 0, 0, 0, -0.0235, -0.1708, -1005, 0, 46.00
11:56:46.684 -> 0, -40.00, 0.00, 15.67, 4, 0, 0, 0, 0, -0.0235, -0.1708, -978, 0, 48.00
11:56:46.717 -> 0, -40.00, 0.00, 15.67, 4, 0, 0, 0, 0, -0.0293, -0.1716, -1001, 0, 48.00
11:56:46.750 -> 0, -40.00, 0.00, 17.56, 4, 0, 0, 0, 0, -0.0293, -0.1716, -984, 0, 48.00
11:56:46.750 -> 0, -40.00, 0.00, 17.56, 4, 0, 0, 0, 0, -0.0293, -0.1716, -984, 0, 48.00
11:56:46.784 -> 0, -40.00, 0.00, 17.56, 4, 0, 0, 0, 0, -0.0293, -0.1716, -985, 0, 48.00
11:56:46.816 -> 0, -40.00, 0.00, 17.56, 4, 0, 0, 0, 0, -0.0293, -0.1716, -985, 0, 48.00
11:56:46.816 -> 0, -40.00, 0.00, 17.56, 4, 0, 0, 0, 0, -0.0293, -0.1716, -989, 0, 48.00
11:56:46.850 -> 0, -40.00, 0.00, 17.56, 4, 0, 0, 0, 0, -0.0293, -0.1716, -989, 0, 48.00
11:56:46.883 -> 0, -40.00, 0.00, 17.56, 4, 0, 0, 0, 0, -0.0293, -0.1716, -994, 0, 48.00
11:56:46.883 -> 0, -40.00, 0.00, 17.56, 4, 0, 0, 0, 0, -0.0293, -0.1716, -994, 0, 48.00
11:56:46.916 -> 0, -40.00, 0.00, 17.56, 4, 0, 0, 0, 0, -0.0293, -0.1716, -1001, 0, 48.00
11:56:46.916 -> 0, -40.00, 0.00, 17.56, 4, 0, 0, 0, 0, -0.0263, -0.1776, -1001, 0, 48.00
11:56:46.949 -> 0, -40.00, 0.00, 17.47, 4, 0, 0, 0, 0, -0.0263, -0.1776, -1010, 0, 48.00
11:56:46.982 -> 0, -40.00, 0.00, 17.47, 4, 0, 0, 0, 0, -0.0263, -0.1776, -1010, 0, 48.00
11:56:46.982 -> 0, -40.00, 0.00, 17.47, 4, 0, 0, 0, 0, -0.0263, -0.1776, -997, 0, 48.00
11:56:47.015 -> 0, -40.00, 0.00, 17.47, 4, 0, 0, 0, 0, -0.0263, -0.1776, -1000, 0, 48.00
11:56:47.048 -> 0, -40.00, 0.00, 17.47, 4, 0, 0, 0, 0, -0.0263, -0.1776, -1000, 0, 48.00
11:56:47.048 -> 0, -40.00, 0.00, 17.47, 4, 0, 0, 0, 0, -0.0263, -0.1776, -997, 0, 48.00
11:56:47.081 -> 0, -40.00, 0.00, 17.47, 4, 0, 0, 0, 0, -0.0231, -0.1811, -997, 0, 48.00
11:56:47.114 -> 0, -40.00, 0.00, 17.47, 4, 0, 0, 0, 0, -0.0231, -0.1811, -997, 0, 48.00
11:56:47.114 -> 0, -40.00, 0.00, 17.47, 4, 0, 0, 0, 0, -0.0231, -0.1811, -985, 0, 48.00
11:56:47.148 -> 0, -40.00, 0.00, 17.47, 4, 0, 0, 0, 0, -0.0231, -0.1811, -985, 0, 49.00
11:56:47.148 -> 0, -40.00, 0.00, 18.42, 4, 0, 0, 0, 0, -0.0231, -0.1811, -981, 0, 49.00
11:56:47.181 -> 0, -40.00, 0.00, 18.42, 4, 0, 0, 0, 0, -0.0231, -0.1811, -987, 0, 49.00
11:56:47.214 -> 0, -40.00, 0.00, 18.42, 4, 0, 0, 0, 0, -0.0231, -0.1811, -987, 0, 49.00
11:56:47.214 -> 0, -40.00, 0.00, 18.42, 4, 0, 0, 0, 0, -0.0231, -0.1811, -987, 0, 49.00
11:56:47.247 -> 0, -40.00, 0.00, 18.42, 4, 0, 0, 0, 0, -0.0231, -0.1811, -999, 0, 49.00
11:56:47.280 -> 0, -40.00, 0.00, 18.42, 4, 0, 0, 0, 0, -0.0231, -0.1811, -999, 0, 49.00
11:56:47.280 -> 0, -40.00, 0.00, 18.42, 4, 0, 0, 0, 0, -0.0231, -0.1811, -1010, 0, 49.00
11:56:47.313 -> 0, -40.00, 0.00, 18.42, 4, 0, 0, 0, 0, -0.0217, -0.1832, -1006, 0, 49.00
11:56:47.313 -> 0, -40.00, 0.00, 18.42, 4, 0, 0, 0, 0, -0.0217, -0.1832, -1006, 0, 49.00
11:56:47.346 -> 0, -40.00, 0.00, 18.39, 4, 0, 0, 0, 0, -0.0217, -0.1832, -998, 0, 49.00
11:56:47.380 -> 0, -40.00, 0.00, 18.39, 4, 0, 0, 0, 0, -0.0217, -0.1832, -998, 0, 49.00
11:56:47.380 -> 0, -40.00, 0.00, 18.39, 4, 0, 0, 0, 0, -0.0217, -0.1832, -991, 0, 49.00
11:56:47.413 -> 0, -40.00, 0.00, 18.39, 4, 0, 0, 0, 0, -0.0217, -0.1832, -980, 0, 49.00
11:56:47.446 -> 0, -40.00, 0.00, 18.39, 4, 0, 0, 0, 0, -0.0217, -0.1832, -980, 0, 49.00
11:56:47.446 -> 0, -40.00, 0.00, 18.39, 4, 0, 0, 0, 0, -0.0203, -0.1865, -980, 0, 49.00
11:56:47.479 -> 0, -40.00, 0.00, 18.39, 4, 0, 0, 0, 0, -0.0203, -0.1865, -1004, 0, 49.00
11:56:47.512 -> 0, -40.00, 0.00, 18.39, 4, 0, 0, 0, 0, -0.0203, -0.1865, -991, 0, 49.00
11:56:47.512 -> 0, -40.00, 0.00, 18.39, 4, 0, 0, 0, 0, -0.0203, -0.1865, -991, 0, 50.00
11:56:47.545 -> 0, -40.00, 0.00, 18.39, 4, 0, 0, 0, 0, -0.0203, -0.1865, -995, 0, 50.00
11:56:47.545 -> 0, -40.00, 0.00, 19.32, 4, 0, 0, 0, 0, -0.0203, -0.1865, -995, 0, 50.00
11:56:47.578 -> 0, -40.00, 0.00, 19.32, 4, 0, 0, 0, 0, -0.0203, -0.1865, -1005, 0, 50.00
11:56:47.611 -> 0, -40.00, 0.00, 19.32, 4, 0, 0, 0, 0, -0.0203, -0.1865, -1005, 0, 50.00
11:56:47.611 -> 0, -40.00, 0.00, 19.32, 4, 0, 0, 0, 0, -0.0184, -0.1860, -1005, 0, 50.00
11:56:47.645 -> 0, -40.00, 0.00, 19.32, 4, 0, 0, 0, 0, -0.0184, -0.1860, -999, 0, 50.00
11:56:47.678 -> 0, -40.00, 0.00, 19.35, 4, 0, 0, 0, 0, -0.0184, -0.1860, -999, 0, 50.00
11:56:47.678 -> 0, -40.00, 0.00, 19.35, 4, 0, 0, 0, 0, -0.0184, -0.1860, -962, 0, 50.00
11:56:47.711 -> 0, -40.00, 0.00, 19.35, 4, 0, 0, 0, 0, -0.0184, -0.1860, -962, 0, 50.00
11:56:47.744 -> 0, -40.00, 0.00, 19.35, 4, 0, 0, 0, 0, -0.0184, -0.1860, -962, 0, 50.00
11:56:47.744 -> 0, -40.00, 0.00, 19.35, 4, 0, 0, 0, 0, -0.0184, -0.1860, -966, 0, 50.00
11:56:47.777 -> 0, -40.00, 0.00, 19.35, 4, 0, 0, 0, 0, -0.0184, -0.1860, -966, 0, 50.00
11:56:47.777 -> 0, -40.00, 0.00, 19.35, 4, 0, 0, 0, 0, -0.0184, -0.1860, -966, 0, 50.00
11:56:47.810 -> 0, -40.00, 0.00, 19.35, 4, 0, 0, 0, 0, -0.0184, -0.1860, -966, 0, 50.00
11:56:47.843 -> 0, -40.00, 0.00, 19.35, 4, 0, 0, 0, 0, -0.0150, -0.1852, -991, 0, 50.00
11:56:47.843 -> 0, -40.00, 0.00, 19.41, 4, 0, 0, 0, 0, -0.0150, -0.1852, -1006, 0, 50.00
11:56:47.876 -> 0, -40.00, 0.00, 19.41, 4, 0, 0, 0, 0, -0.0150, -0.1852, -1006, 0, 50.00
11:56:47.910 -> 0, -40.00, 0.00, 19.41, 4, 0, 0, 0, 0, -0.0150, -0.1852, -981, 0, 50.00
11:56:47.910 -> 0, -40.00, 0.00, 19.41, 4, 0, 0, 0, 0, -0.0150, -0.1852, -981, 0, 50.00
11:56:47.943 -> 0, -40.00, 0.00, 19.41, 4, 0, 0, 0, 0, -0.0144, -0.1679, -972, 0, 50.00
11:56:47.976 -> 0, -40.00, 0.00, 19.77, 4, 0, 0, 0, 0, -0.0144, -0.1679, -972, 0, 50.00
11:56:47.976 -> 0, -40.00, 0.00, 19.77, 4, 0, 0, 0, 0, -0.0144, -0.1679, -972, 0, 50.00
11:56:48.009 -> 0, -40.00, 0.00, 19.77, 4, 0, 0, 0, 0, -0.0144, -0.1679, -972, 0, 50.00
11:56:48.009 -> 0, -40.00, 0.00, 19.77, 4, 0, 0, 0, 0, -0.0144, -0.1679, -1012, 0, 50.00
11:56:48.042 -> 0, -40.00, 0.00, 19.77, 4, 0, 0, 0, 0, -0.0144, -0.1679, -991, 0, 50.00
11:56:48.075 -> 0, -40.00, 0.00, 19.77, 4, 0, 0, 0, 0, -0.0144, -0.1679, -1044, 0, 50.00
11:56:48.075 -> 0, -40.00, 0.00, 19.77, 4, 0, 0, 0, 0, -0.0144, -0.1679, -1044, 0, 50.00
11:56:48.108 -> 0, -40.00, 0.00, 19.77, 4, 0, 0, 0, 0, -0.0144, -0.1679, -1019, 0, 50.00
11:56:48.142 -> 0, -40.00, 0.00, 19.77, 4, 0, 0, 0, 0, -0.0245, -0.1639, -1019, 0, 50.00
11:56:48.142 -> 0, -40.00, 0.00, 19.77, 4, 0, 0, 0, 0, -0.0245, -0.1639, -1031, 0, 50.00
11:56:48.175 -> 0, -40.00, 0.00, 19.74, 4, 0, 0, 0, 0, -0.0245, -0.1639, -1031, 0, 50.00
11:56:48.175 -> 0, -40.00, 0.00, 19.74, 4, 0, 0, 0, 0, -0.0245, -0.1639, -1031, 0, 50.00
11:56:48.208 -> 0, -40.00, 0.00, 19.74, 4, 0, 0, 0, 0, -0.0245, -0.1639, -1031, 0, 50.00
11:56:48.241 -> 0, -40.00, 0.00, 19.74, 4, 0, 0, 0, 0, -0.0245, -0.1639, -1031, 0, 50.00
11:56:48.241 -> 0, -40.00, 0.00, 19.74, 4, 0, 0, 0, 0, -0.0245, -0.1639, -1018, 0, 50.00
11:56:48.275 -> 0, -40.00, 0.00, 19.74, 4, 0, 0, 0, 0, -0.0220, -0.1756, -1008, 0, 50.00
11:56:48.308 -> 0, -40.00, 0.00, 19.74, 4, 0, 0, 0, 0, -0.0220, -0.1756, -982, 0, 50.00
11:56:48.308 -> 0, -40.00, 0.00, 19.74, 4, 0, 0, 0, 0, -0.0220, -0.1756, -982, 0, 50.00
11:56:48.341 -> 0, -40.00, 0.00, 19.74, 4, 0, 0, 0, 0, -0.0220, -0.1756, -982, 0, 50.00
11:56:48.374 -> 0, -40.00, 0.00, 19.53, 4, 0, 0, 0, 0, -0.0220, -0.1756, -968, 0, 50.00
11:56:48.374 -> 0, -40.00, 0.00, 19.53, 4, 0, 0, 0, 0, -0.0220, -0.1756, -960, 0, 50.00
11:56:48.407 -> 0, -40.00, 0.00, 19.53, 4, 0, 0, 0, 0, -0.0176, -0.1967, -960, 0, 50.00
11:56:48.407 -> 0, -40.00, 0.00, 19.53, 4, 0, 0, 0, 0, -0.0176, -0.1967, -950, 0, 50.00
11:56:48.440 -> 0, -40.00, 0.00, 19.53, 4, 0, 0, 0, 0, -0.0176, -0.1967, -950, 0, 50.00
11:56:48.473 -> 0, -40.00, 0.00, 19.14, 4, 0, 0, 0, 0, -0.0176, -0.1967, -959, 0, 50.00
11:56:48.473 -> 0, -40.00, 0.00, 19.14, 4, 0, 0, 0, 0, -0.0176, -0.1967, -959, 0, 50.00
11:56:48.506 -> 0, -40.00, 0.00, 19.14, 4, 0, 0, 0, 0, -0.0176, -0.1967, -955, 0, 50.00
11:56:48.539 -> 0, -40.00, 0.00, 19.14, 4, 0, 0, 0, 0, -0.0176, -0.1967, -955, 0, 50.00
11:56:48.539 -> 0, -40.00, 0.00, 19.14, 4, 0, 0, 0, 0, -0.0176, -0.1967, -972, 0, 50.00
11:56:48.573 -> 0, -40.00, 0.00, 20.12, 4, 0, 0, 0, 0, -0.0176, -0.1967, -972, 0, 51.00
11:56:48.573 -> 0, -40.00, 0.00, 20.12, 4, 0, 0, 0, 0, -0.0181, -0.2030, -950, 0, 51.00
11:56:48.606 -> 0, -40.00, 0.00, 20.12, 4, 0, 0, 0, 0, -0.0181, -0.2030, -950, 0, 51.00
11:56:48.639 -> 0, -40.00, 0.00, 20.12, 4, 0, 0, 0, 0, -0.0181, -0.2030, -945, 0, 51.00
11:56:48.639 -> 0, -40.00, 0.00, 20.12, 4, 0, 0, 0, 0, -0.0181, -0.2030, -941, 0, 51.00
11:56:48.672 -> 0, -40.00, 0.00, 19.99, 4, 0, 0, 0, 0, -0.0181, -0.2030, -941, 0, 51.00
11:56:48.705 -> 0, -40.00, 0.00, 19.99, 4, 0, 0, 0, 0, -0.0181, -0.2030, -949, 0, 51.00
11:56:48.705 -> 0, -40.00, 0.00, 19.99, 4, 0, 0, 0, 0, -0.0081, -0.1973, -949, 0, 51.00
11:56:48.738 -> 0, -40.00, 0.00, 19.99, 4, 0, 0, 0, 0, -0.0081, -0.1973, -920, 0, 51.00
11:56:48.771 -> 0, -40.00, 0.00, 19.99, 4, 0, 0, 0, 0, -0.0081, -0.1973, -920, 0, 50.00
11:56:48.771 -> 0, -40.00, 0.00, 19.23, 4, 0, 0, 0, 0, -0.0081, -0.1973, -917, 0, 50.00
11:56:48.805 -> 0, -40.00, 0.00, 19.23, 4, 0, 0, 0, 0, -0.0081, -0.1973, -917, 0, 50.00
11:56:48.805 -> 0, -40.00, 0.00, 19.23, 4, 0, 0, 0, 0, -0.0081, -0.1973, -917, 0, 50.00
11:56:48.838 -> 0, -40.00, 0.00, 19.23, 4, 0, 0, 0, 0, -0.0081, -0.1973, -882, 0, 50.00
11:56:48.871 -> 0, -40.00, 0.00, 19.23, 4, 0, 0, 0, 0, -0.0081, -0.1973, -881, 0, 50.00
11:56:48.871 -> 0, -40.00, 0.00, 19.23, 4, 0, 0, 0, 0, -0.0041, -0.1777, -881, 0, 50.00
11:56:48.905 -> 0, -40.00, 0.00, 19.23, 4, 0, 0, 0, 0, -0.0041, -0.1777, -875, 0, 50.00
11:56:48.937 -> 0, -40.00, 0.00, 19.23, 4, 0, 0, 0, 0, -0.0041, -0.1777, -875, 0, 50.00
11:56:48.937 -> 0, -40.00, 0.00, 19.23, 4, 0, 0, 0, 0, -0.0041, -0.1777, -875, 0, 50.00
11:56:48.971 -> 0, -40.00, 0.00, 15.74, 4, 0, 0, 0, 0, -0.0041, -0.1777, -875, 0, 46.00
11:56:49.004 -> 0, -40.00, 0.00, 15.74, 4, 0, 0, 0, 0, -0.0041, -0.1777, -883, 0, 46.00
11:56:49.004 -> 0, -40.00, 0.00, 15.74, 4, 0, 0, 0, 0, -0.0041, -0.1777, -883, 0, 46.00
11:56:49.037 -> 0, -40.00, 0.00, 15.74, 4, 0, 0, 0, 0, -0.0041, -0.1777, -910, 0, 46.00
11:56:49.037 -> 0, -40.00, 0.00, 15.74, 4, 0, 0, 0, 0, -0.0041, -0.1777, -900, 0, 46.00
11:56:49.070 -> 0, -40.00, 0.00, 16.59, 4, 0, 0, 0, 0, -0.0264, -0.1211, -900, 0, 46.00
11:56:49.103 -> 0, -40.00, 0.00, 16.59, 4, 0, 0, 0, 0, -0.0264, -0.1211, -949, 0, 46.00
11:56:49.103 -> 0, -40.00, 0.00, 16.59, 4, 0, 0, 0, 0, -0.0264, -0.1211, -949, 0, 46.00
11:56:49.136 -> 0, -40.00, 0.00, 16.59, 4, 0, 0, 0, 0, -0.0264, -0.1211, -949, 0, 38.00
11:56:49.169 -> 0, -40.00, 0.00, 16.59, 4, 0, 0, 0, 0, -0.0264, -0.1211, -949, 0, 38.00
11:56:49.169 -> 0, -40.00, 0.00, 8.65, 4, 0, 0, 0, 0, -0.0264, -0.1211, -860, 0, 38.00
11:56:49.202 -> 0, -40.00, 0.00, 8.65, 4, 0, 0, 0, 0, -0.0320, -0.0542, -860, 0, 38.00
11:56:49.236 -> 0, -40.00, 0.00, 8.65, 4, 0, 0, 0, 0, -0.0320, -0.0542, -530, 0, 38.00
11:56:49.236 -> 0, -40.00, 0.00, 8.65, 4, 0, 0, 0, 0, -0.0320, -0.0542, -530, 0, 38.00
11:56:49.269 -> 0, -40.00, 0.00, 8.65, 4, 0, 0, 0, 0, -0.0320, -0.0542, -721, 0, 38.00
11:56:49.269 -> 0, -40.00, 0.00, 9.75, 4, 0, 0, 0, 0, -0.0320, -0.0542, -721, 0, 38.00
11:56:49.302 -> 0, -40.00, 0.00, 9.75, 4, 0, 0, 0, 0, -0.0320, -0.0542, -721, 0, 38.00
11:56:49.335 -> 0, -40.00, 0.00, 9.75, 4, 0, 0, 0, 0, -0.0320, -0.0542, -721, 0, 38.00
11:56:49.335 -> 0, -40.00, 0.00, 9.75, 4, 0, 0, 0, 0, -0.0320, -0.0542, 2041, 0, 28.00
11:56:49.368 -> 0, -40.00, 0.00, -0.23, 4, 0, 0, 0, 0, -0.0320, -0.0542, 2041, 0, 28.00
11:56:49.368 -> g0	cm28.00	Z-1661
11:56:49.368 -> LandDetectg0	cm28.00	Z-1661
11:56:49.368 -> LandDetectg0	cm28.00	Z-1661
11:56:49.368 -> LandDetectg0	cm28.00	Z-1661
11:56:49.368 -> LandDetectg0	cm28.00	Z-1661
11:56:49.368 -> LandDetectg0	cm28.00	Z-1661
11:56:49.368 -> LandDetectg0	cm28.00	Z-1661
11:56:49.368 -> LandDetectg0	cm28.00	Z-1661
11:56:49.368 -> LandDetectg0	cm28.00	Z-1661
11:56:49.368 -> LandDetectg0	cm28.00	Z-1661
11:56:49.368 -> LandDetectg0	cm28.00	Z-1661
11:56:49.368 -> LandDetectg0	cm28.00	Z-1661
11:56:49.368 -> LandDetectg0	cm28.00	Z-1661
11:56:49.368 -> LandDetectg0	cm28.00	Z-1661
11:56:49.368 -> LandDetectg0	cm28.00	Z-1661
11:56:49.368 -> LandDetectg0	cm28.00	Z-1661
11:56:49.368 -> LandDetectg0	cm28.00	Z-1661
11:56:49.368 -> LandDetectg0	cm28.00	Z-1661
11:56:49.368 -> LandDetectg0	cm28.00	Z-1661
11:56:49.368 -> LandDetectg0	cm28.00	Z-1661
11:56:49.368 -> LandDetectg0	cm28.00	Z-1661
11:56:49.368 -> LandDetectg0	cm28.00	Z-1661
11:56:49.368 -> LandDetectg0	cm28.00	Z-1661
11:56:49.368 -> LandDetectg0	cm28.00	Z-1661
11:56:49.368 -> LandDetectg0	cm28.00	Z-1661
11:56:49.368 -> LandDetectg0	cm28.00	Z-1661
11:56:49.368 -> LandDetectg0	cm28.00	Z-1661
11:56:49.368 -> LandDetectg0	cm28.00	Z-1661
11:56:49.368 -> LandDetectg0	cm28.00	Z-1661
11:56:49.368 -> LandDetectg0	cm28.00	Z-1661
11:56:49.368 -> LandDetectg0	cm28.00	Z-1661
11:56:49.368 -> LandDetectg0	cm28.00	Z-1661
11:56:49.368 -> LandDetectg0	cm28.00	Z-1661
11:56:49.368 -> LandDetectg0	cm28.00	Z-1661
11:56:49.368 -> LandDetectg0	cm28.00	Z-1661
11:56:49.368 -> LandDetectg0	cm28.00	Z-1661
11:56:49.368 -> LandDetectg0	cm28.00	Z-1661
11:56:49.368 -> LandDetectg0	cm28.00	Z-1661
11:56:49.368 -> LandDetectg0	cm28.00	Z-1661
11:56:49.368 -> LandDetectg0	cm28.00	Z-1661
11:56:49.368 -> LandDetectg0	cm28.00	Z-1661
11:56:49.368 -> LandDetectg0	cm28.00	Z-1661
11:56:49.368 -> LandDetectg0	cm28.00	Z-1661
11:56:49.368 -> LandDetectg0	cm28.00	Z-1661
11:56:49.368 -> LandDetectg0	cm28.00	Z-1661
11:56:49.368 -> LandDetectg0	cm28.00	Z-1661
11:56:49.368 -> LandDetectg0	cm28.00	Z-1661
11:56:49.368 -> LandDetectg0	cm28.00	Z-1661
11:56:49.368 -> LandDetectg0	cm28.00	Z-1661
11:56:49.368 -> LandDetectg0	cm28.00	Z-1661
11:56:49.368 -> LandDetectg0	cm28.00	Z-1661
11:56:49.368 -> LandDetectg0	cm28.00	Z-1661
11:56:49.368 -> LandDetectg0	cm28.00	Z-1661
11:56:49.368 -> LandDetectg0	cm28.00	Z-1661
11:56:49.368 -> LandDetectg0	cm28.00	Z-1661
11:56:49.368 -> LandDetectg0	cm28.00	Z-1661
11:56:49.368 -> LandDetectg0	cm28.00	Z-1661
11:56:49.368 -> LandDetectg0	cm28.00	Z-1661
11:56:49.368 -> LandDetectg0	cm28.00	Z-1661
11:56:49.368 -> LandDetectg0	cm28.00	Z-1661
11:56:49.368 -> LandDetectg0	cm28.00	Z-1661
11:56:49.368 -> LandDetectg0	cm28.00	Z-1661
11:56:49.368 -> LandDetectg0	cm28.00	Z-1661
11:56:49.368 -> LandDetectg0	cm28.00	Z-1661
11:56:49.368 -> LandDetectg0	cm28.00	Z-1661
11:56:49.368 -> LandDetectg0	cm28.00	Z-1661
11:56:49.368 -> LandDetectg0	cm28.00	Z-1661
11:56:49.368 -> LandDetectg0	cm28.00	Z-1661
11:56:49.368 -> LandDetectg0	cm28.00	Z-1661
11:56:49.368 -> LandDetectg0	cm28.00	Z-1661
11:56:49.368 -> LandDetectg0	cm28.00	Z-1661
11:56:49.368 -> LandDetectg0	cm28.00	Z-1661
11:56:49.368 -> LandDetectg0	cm28.00	Z-1661
11:56:49.368 -> LandDetectg0	cm28.00	Z-1661
11:56:49.368 -> LandDetectg0	cm28.00	Z-1661
11:56:49.368 -> LandDetectg0	cm28.00	Z-1661
11:56:49.368 -> LandDetectg0	cm28.00	Z-1661
11:56:49.368 -> LandDetectg0	cm28.00	Z-1661
11:56:49.368 -> LandDetectg0	cm28.00	Z-1661
11:56:49.368 -> LandDetectg0	cm28.00	Z-1661
11:56:49.368 -> LandDetectg0	cm28.00	Z-1661
11:56:49.368 -> LandDetectg0	cm28.00	Z-1661
11:56:49.368 -> LandDetectg0	cm28.00	Z-1661
11:56:49.368 -> LandDetectg0	cm28.00	Z-1661
11:56:49.368 -> LandDetectg0	cm28.00	Z-1661
11:56:49.368 -> LandDetectg0	cm28.00	Z-1661
11:56:49.368 -> LandDetectg0	cm28.00	Z-1661
11:56:49.368 -> LandDetectg0	cm28.00	Z-1661
11:56:49.368 -> LandDetectg0	cm28.00	Z-1661
11:56:49.368 -> LandDetectg0	cm28.00	Z-1661
11:56:49.368 -> LandDetectg0	cm28.00	Z-1661
11:56:49.368 -> LandDetectg0	cm28.00	Z-1661
11:56:49.368 -> LandDetectg0	cm28.00	Z-1661
11:56:49.368 -> LandDetectg0	cm28.00	Z-1661
11:56:49.368 -> LandDetectg0	cm28.00	Z-1661
11:56:49.368 -> LandDetectg0	cm28.00	Z-1661
11:56:49.368 -> LandDetectg0	cm28.00	Z-1661
11:56:49.368 -> LandDetectg0	cm28.00	Z-1661
11:56:49.368 -> LandDetectg0	cm28.00	Z-1661
11:56:49.368 -> LandDetectg0	cm28.00	Z-1661
11:56:49.368 -> LandDetectg0	cm28.00	Z-1661
11:56:49.368 -> LandDetectg0	cm28.00	Z-1661
11:56:49.368 -> LandDetectg0	cm28.00	Z-1661
11:56:49.368 -> LandDetectg0	cm28.00	Z-1661
11:56:49.368 -> LandDetectg0	cm28.00	Z-1661
11:56:49.368 -> LandDetectg0	cm28.00	Z-1661
11:56:49.368 -> LandDetectg0	cm28.00	Z-1661
11:56:49.368 -> LandDetectg0	cm28.00	Z-1661
11:56:49.368 -> LandDetectg0	cm28.00	Z-1661
11:56:49.368 -> LandDetectg0	cm28.00	Z-1661
11:56:49.368 -> LandDetectg0	cm28.00	Z-1661
11:56:49.368 -> LandDetectg0	cm28.00	Z-1661
11:56:49.368 -> LandDetectg0	cm28.00	Z-1661
11:56:49.368 -> LandDetectg0	cm28.00	Z-1661
11:56:49.368 -> LandDetectg0	cm28.00	Z-1661
11:56:49.368 -> LandDetectg0	cm28.00	Z-1661
11:56:49.368 -> LandDetectg0	cm28.00	Z-1661
11:56:49.368 -> LandDetectg0	cm28.00	Z-1661
11:56:49.368 -> LandDetectg0	cm28.00	Z-1661
11:56:49.368 -> LandDetectg0	cm28.00	Z-1661
11:56:49.368 -> LandDetectg0	cm28.00	Z-1661
11:56:49.368 -> LandDetectg0	cm28.00	Z-1661
11:56:49.368 -> LandDetectg0	cm28.00	Z-1661
11:56:49.368 -> LandDetectg0	cm28.00	Z-1661
11:56:49.368 -> LandDetectg0	cm28.00	Z-1661
11:56:49.368 -> LandDetectg0	cm28.00	Z-1661
11:56:49.368 -> LandDetectg0	cm28.00	Z-1661
11:56:49.368 -> LandDetectg0	cm28.00	Z-1661
11:56:49.368 -> LandDetectg0	cm28.00	Z-1661
11:56:49.368 -> LandDetectg0	cm28.00	Z-1661
11:56:49.368 -> LandDetectg0	cm28.00	Z-1661
11:56:49.368 -> LandDetectg0	cm28.00	Z-1661
11:56:49.368 -> LandDetectg0	cm28.00	Z-1661
11:56:49.368 -> LandDetectg0	cm28.00	Z-1661
11:56:49.368 -> LandDetectg0	cm28.00	Z-1661
11:56:49.368 -> LandDetectg0	cm28.00	Z-1661
11:56:49.368 -> LandDetectg0	cm28.00	Z-1661
11:56:49.368 -> LandDetectg0	cm28.00	Z-1661
11:56:49.368 -> LandDetectg0	cm28.00	Z-1661
11:56:49.368 -> LandDetectg0	cm28.00	Z-1661
11:56:49.368 -> LandDetectg0	cm28.00	Z-1661
11:56:49.368 -> LandDetectg0	cm28.00	Z-1661
11:56:49.368 -> LandDetectg0	cm28.00	Z-1661
11:56:49.368 -> LandDetectg0	cm28.00	Z-1661
11:56:49.368 -> LandDetectg0	cm28.00	Z-1661
11:56:49.368 -> LandDetectg0	cm28.00	Z-1661
11:56:49.368 -> LandDetectg0	cm28.00	Z-1661
11:56:49.368 -> LandDetectg0	cm28.00	Z-1661
11:56:49.368 -> LandDetectg0	cm28.00	Z-1661
11:56:49.368 -> LandDetectg0	cm28.00	Z-1661
11:56:49.368 -> LandDetectg0	cm28.00	Z-1661
11:56:49.368 -> LandDetectg0	cm28.00	Z-1661
11:56:49.368 -> LandDetectg0	cm28.00	Z-1661
11:56:49.368 -> LandDetectg0	cm28.00	Z-1661
11:56:49.368 -> LandDetectg0	cm28.00	Z-1661
11:56:49.368 -> LandDetectg0	cm28.00	Z-1661
11:56:49.368 -> LandDetectg0	cm28.00	Z-1661
11:56:49.368 -> LandDetectg0	cm28.00	Z-1661
11:56:49.368 -> LandDetectg0	cm28.00	Z-1661
11:56:49.368 -> LandDetectg0	cm28.00	Z-1661
11:56:49.368 -> LandDetectg0	cm28.00	Z-1661
11:56:49.368 -> LandDetectg0	cm28.00	Z-1661
11:56:49.368 -> LandDetectg0	cm28.00	Z-1661
11:56:49.368 -> LandDetectg0	cm28.00	Z-1661
11:56:49.368 -> LandDetectg0	cm28.00	Z-1661
11:56:49.368 -> LandDetectg0	cm28.00	Z-1661
11:56:49.368 -> LandDetectg0	cm28.00	Z-1661
11:56:49.368 -> LandDetectg0	cm28.00	Z-1661
11:56:49.368 -> LandDetectg0	cm28.00	Z-1661
11:56:49.368 -> LandDetectg0	cm28.00	Z-1661
11:56:49.368 -> LandDetectg0	cm28.00	Z-1661
11:56:49.368 -> LandDetectg0	cm28.00	Z-1661
11:56:49.368 -> LandDetectg0	cm28.00	Z-1661
11:56:49.368 -> LandDetectg0	cm28.00	Z-1661
11:56:49.368 -> LandDetectg0	cm28.00	Z-1661
11:56:49.368 -> LandDetectg0	cm28.00	Z-1661
11:56:49.368 -> LandDetectg0	cm28.00	Z-1661
11:56:49.368 -> LandDetectg0	cm28.00	Z-1661
11:56:49.368 -> LandDetectg0	cm28.00	Z-1661
11:56:49.368 -> LandDetectg0	cm28.00	Z-1661
11:56:49.368 -> LandDetectg0	cm28.00	Z-1661
11:56:49.368 -> LandDetectg0	cm28.00	Z-1661
11:56:49.368 -> LandDetectg0	cm28.00	Z-1661
11:56:49.368 -> LandDetectg0	cm28.00	Z-1661
11:56:49.368 -> LandDetectg0	cm28.00	Z-1661
11:56:49.368 -> LandDetectg0	cm28.00	Z-1661
11:56:49.368 -> LandDetectg0	cm28.00	Z-1661
11:56:49.368 -> LandDetectg0	cm28.00	Z-1661
11:56:49.368 -> LandDetectg0	cm28.00	Z-1661
11:56:49.368 -> LandDetectg0	cm28.00	Z-1661
11:56:49.368 -> LandDetectg0	cm28.00	Z-1661
11:56:49.368 -> LandDetectg0	cm28.00	Z-1661
11:56:49.368 -> LandDetectg0	cm28.00	Z-1661
11:56:49.368 -> LandDetectg0	cm28.00	Z-1661
11:56:49.368 -> LandDetectg0	cm28.00	Z-1661
11:56:49.368 -> LandDetectg0	cm28.00	Z-1661
11:56:49.368 -> LandDetectg0	cm28.00	Z-1661
11:56:49.368 -> LandDetectg0	cm28.00	Z-1661
11:56:49.368 -> LandDetectg0	cm28.00	Z-1661
11:56:49.368 -> LandDetectg0	cm28.00	Z-1661
11:56:49.368 -> LandDetect0, -40.00, 0.00, -0.23, 4, 0, 0, 0, 0, -0.0134, -0.0589, -1661, 1, 28.00
11:56:49.368 -> g0	cm28.00	Z-1661
11:56:49.368 -> LandDetectg0	cm28.00	Z-1661
11:56:49.368 -> LandDetectg0	cm28.00	Z-1661
11:56:49.368 -> LandDetectg0	cm28.00	Z-1661
11:56:49.368 -> LandDetectg0	cm28.00	Z-1661
11:56:49.368 -> LandDetectg0	cm28.00	Z-1661
11:56:49.368 -> LandDetectg0	cm28.00	Z-1661
11:56:49.368 -> LandDetectg0	cm28.00	Z-1661
11:56:49.368 -> LandDetectg0	cm28.00	Z-1661
11:56:49.368 -> LandDetectg0	cm28.00	Z-1661
11:56:49.368 -> LandDetectg0	cm28.00	Z-1661
11:56:49.368 -> LandDetectg0	cm28.00	Z-1661
11:56:49.368 -> LandDetectg0	cm28.00	Z-1661
11:56:49.368 -> LandDetectg0	cm28.00	Z-1661
11:56:49.368 -> LandDetectg0	cm28.00	Z-1661
11:56:49.368 -> LandDetectg0	cm28.00	Z-1661
11:56:49.368 -> LandDetectg0	cm28.00	Z-1661
11:56:49.368 -> LandDetectg0	cm28.00	Z-1661
11:56:49.368 -> LandDetectg0	cm28.00	Z-1661
11:56:49.368 -> LandDetectg0	cm28.00	Z-1661
11:56:49.368 -> LandDetectg0	cm28.00	Z-1661
11:56:49.368 -> LandDetectg0	cm28.00	Z-1661
11:56:49.368 -> LandDetectg0	cm28.00	Z-1661
11:56:49.368 -> LandDetectg0	cm28.00	Z-1661
11:56:49.368 -> LandDetectg0	cm28.00	Z-1661
11:56:49.368 -> LandDetectg0	cm28.00	Z-1661
11:56:49.368 -> LandDetectg0	cm28.00	Z-1661
11:56:49.368 -> LandDetectg0	cm28.00	Z-1661
11:56:49.368 -> LandDetectg0	cm28.00	Z-1661
11:56:49.368 -> LandDetectg0	cm28.00	Z-1661
11:56:49.368 -> LandDetectg0	cm28.00	Z-1661
11:56:49.368 -> LandDetectg0	cm28.00	Z-1661
11:56:49.368 -> LandDetectg0	cm28.00	Z-1661
11:56:49.368 -> LandDetectg0	cm28.00	Z-1661
11:56:49.368 -> LandDetectg0	cm28.00	Z-1661
11:56:49.368 -> LandDetectg0	cm28.00	Z-1661
11:56:49.368 -> LandDetectg0	cm28.00	Z-1661
11:56:49.401 -> LandDetectg0	cm28.00	Z-1661
11:56:49.401 -> LandDetectg0	cm28.00	Z-1661
11:56:49.401 -> LandDetectg0	cm28.00	Z-1661
11:56:49.401 -> LandDetectg0	cm28.00	Z-1661
11:56:49.401 -> LandDetectg0	cm28.00	Z-1661
11:56:49.401 -> LandDetectg0	cm28.00	Z-1661
11:56:49.401 -> LandDetectg0	cm28.00	Z-1661
11:56:49.401 -> LandDetectg0	cm28.00	Z-1661
11:56:49.401 -> LandDetectg0	cm28.00	Z-1661
11:56:49.401 -> LandDetectg0	cm28.00	Z-1661
11:56:49.401 -> LandDetectg0	cm28.00	Z-1661
11:56:49.401 -> LandDetectg0	cm28.00	Z-1661
11:56:49.401 -> LandDetectg0	cm28.00	Z-1661
11:56:49.401 -> LandDetectg0	cm28.00	Z-1661
11:56:49.401 -> LandDetectg0	cm28.00	Z-1661
11:56:49.401 -> LandDetectg0	cm28.00	Z-1661
11:56:49.401 -> LandDetectg0	cm28.00	Z-1661
11:56:49.401 -> LandDetectg0	cm28.00	Z-1661
11:56:49.401 -> LandDetectg0	cm28.00	Z-1661
11:56:49.401 -> LandDetectg0	cm28.00	Z-1661
11:56:49.401 -> LandDetectg0	cm28.00	Z-1661
11:56:49.401 -> LandDetectg0	cm28.00	Z-1661
11:56:49.401 -> LandDetectg0	cm28.00	Z-1661
11:56:49.401 -> LandDetectg0	cm28.00	Z-1661
11:56:49.401 -> LandDetectg0	cm28.00	Z-1661
11:56:49.401 -> LandDetectg0	cm28.00	Z-1661
11:56:49.401 -> LandDetectg0	cm28.00	Z-1661
11:56:49.401 -> LandDetectg0	cm28.00	Z-1661
11:56:49.401 -> LandDetectg0	cm28.00	Z-1661
11:56:49.401 -> LandDetectg0	cm28.00	Z-1661
11:56:49.401 -> LandDetectg0	cm28.00	Z-1661
11:56:49.401 -> LandDetectg0	cm28.00	Z-1661
11:56:49.401 -> LandDetectg0	cm28.00	Z-1661
11:56:49.401 -> LandDetectg0	cm28.00	Z-1661
11:56:49.401 -> LandDetectg0	cm28.00	Z-1661
11:56:49.401 -> LandDetectg0	cm28.00	Z-1661
11:56:49.401 -> LandDetectg0	cm28.00	Z-1661
11:56:49.401 -> LandDetectg0	cm28.00	Z-1661
11:56:49.401 -> LandDetectg0	cm28.00	Z-1661
11:56:49.401 -> LandDetectg0	cm28.00	Z-1661
11:56:49.401 -> LandDetectg0	cm28.00	Z-1661
11:56:49.401 -> LandDetectg0	cm28.00	Z-1661
11:56:49.401 -> LandDetectg0	cm28.00	Z-1661
11:56:49.401 -> LandDetectg0	cm28.00	Z-1661
11:56:49.401 -> LandDetectg0	cm28.00	Z-1661
11:56:49.401 -> LandDetectg0	cm28.00	Z-1661
11:56:49.401 -> LandDetectg0	cm28.00	Z-1661
11:56:49.401 -> LandDetectg0	cm28.00	Z-1661
11:56:49.401 -> LandDetectg0	cm28.00	Z-1661
11:56:49.401 -> LandDetectg0	cm28.00	Z-1661
11:56:49.401 -> LandDetectg0	cm28.00	Z-1661
11:56:49.401 -> LandDetectg0	cm28.00	Z-1661
11:56:49.401 -> LandDetectg0	cm28.00	Z-1661
11:56:49.401 -> LandDetectg0	cm28.00	Z-1661
11:56:49.401 -> LandDetectg0	cm28.00	Z-1661
11:56:49.401 -> LandDetectg0	cm28.00	Z-1661
11:56:49.401 -> LandDetectg0	cm28.00	Z-1661
11:56:49.401 -> LandDetectg0	cm28.00	Z-1661
11:56:49.401 -> LandDetectg0	cm28.00	Z-1661
11:56:49.401 -> LandDetectg0	cm28.00	Z-1661
11:56:49.401 -> LandDetectg0	cm28.00	Z-1661
11:56:49.401 -> LandDetectg0	cm28.00	Z-1661
11:56:49.401 -> LandDetectg0	cm28.00	Z-1661
11:56:49.401 -> LandDetectg0	cm28.00	Z-1661
11:56:49.401 -> LandDetectg0	cm28.00	Z-1661
11:56:49.401 -> LandDetectg0	cm28.00	Z-1661
11:56:49.401 -> LandDetectg0	cm28.00	Z-1661
11:56:49.401 -> LandDetectg0	cm28.00	Z-1661
11:56:49.401 -> LandDetectg0	cm28.00	Z-1661
11:56:49.401 -> LandDetectg0	cm28.00	Z-1661
11:56:49.401 -> LandDetectg0	cm28.00	Z-1661
11:56:49.401 -> LandDetectg0	cm28.00	Z-1661
11:56:49.401 -> LandDetectg0	cm28.00	Z-1661
11:56:49.401 -> LandDetectg0	cm28.00	Z-1661
11:56:49.401 -> LandDetectg0	cm28.00	Z-1661
11:56:49.401 -> LandDetectg0	cm28.00	Z-1661
11:56:49.401 -> LandDetectg0	cm28.00	Z-1661
11:56:49.401 -> LandDetectg0	cm28.00	Z-1661
11:56:49.401 -> LandDetectg0	cm28.00	Z-1661
11:56:49.401 -> LandDetectg0	cm28.00	Z-1661
11:56:49.401 -> LandDetectg0	cm28.00	Z-1661
11:56:49.401 -> LandDetectg0	cm28.00	Z-1661
11:56:49.401 -> LandDetectg0	cm28.00	Z-1661
11:56:49.401 -> LandDetectg0	cm28.00	Z-1661
11:56:49.401 -> LandDetectg0	cm28.00	Z-1661
11:56:49.401 -> LandDetectg0	cm28.00	Z-1661
11:56:49.401 -> LandDetectg0	cm28.00	Z-1661
11:56:49.401 -> LandDetectg0	cm28.00	Z-1661
11:56:49.401 -> LandDetectg0	cm28.00	Z-1661
11:56:49.401 -> LandDetectg0	cm28.00	Z-1661
11:56:49.401 -> LandDetectg0	cm28.00	Z-1661
11:56:49.401 -> LandDetectg0	cm28.00	Z-1661
11:56:49.401 -> LandDetectg0	cm28.00	Z-1661
11:56:49.401 -> LandDetectg0	cm28.00	Z-1661
11:56:49.401 -> LandDetectg0	cm28.00	Z-1661
11:56:49.401 -> LandDetectg0	cm28.00	Z-1661
11:56:49.401 -> LandDetectg0	cm28.00	Z-1661
11:56:49.401 -> LandDetectg0	cm28.00	Z-1661
11:56:49.401 -> LandDetectg0	cm28.00	Z-1661
11:56:49.401 -> LandDetectg0	cm28.00	Z-1661
11:56:49.401 -> LandDetectg0	cm28.00	Z-1661
11:56:49.401 -> LandDetectg0	cm28.00	Z-1661
11:56:49.401 -> LandDetectg0	cm28.00	Z-1661
11:56:49.401 -> LandDetectg0	cm28.00	Z-1661
11:56:49.401 -> LandDetectg0	cm28.00	Z-1661
11:56:49.401 -> LandDetectg0	cm28.00	Z-1661
11:56:49.401 -> LandDetectg0	cm28.00	Z-1661
11:56:49.401 -> LandDetectg0	cm28.00	Z-1661
11:56:49.401 -> LandDetectg0	cm28.00	Z-1661
11:56:49.401 -> LandDetectg0	cm28.00	Z-1661
11:56:49.401 -> LandDetectg0	cm28.00	Z-1661
11:56:49.401 -> LandDetectg0	cm28.00	Z-1661
11:56:49.401 -> LandDetectg0	cm28.00	Z-1661
11:56:49.401 -> LandDetectg0	cm28.00	Z-1661
11:56:49.401 -> LandDetectg0	cm28.00	Z-1661
11:56:49.401 -> LandDetectg0	cm28.00	Z-1661
11:56:49.401 -> LandDetectg0	cm28.00	Z-1661
11:56:49.401 -> LandDetectg0	cm28.00	Z-1661
11:56:49.401 -> LandDetectg0	cm28.00	Z-1661
11:56:49.401 -> LandDetectg0	cm28.00	Z-1661
11:56:49.401 -> LandDetectg0	cm28.00	Z-1661
11:56:49.401 -> LandDetectg0	cm28.00	Z-1661
11:56:49.401 -> LandDetectg0	cm28.00	Z-1661
11:56:49.401 -> LandDetectg0	cm28.00	Z-1661
11:56:49.401 -> LandDetectg0	cm28.00	Z-1661
11:56:49.401 -> LandDetectg0	cm28.00	Z-1661
11:56:49.401 -> LandDetectg0	cm28.00	Z-1661
11:56:49.401 -> LandDetectg0	cm28.00	Z-1661
11:56:49.401 -> LandDetectg0	cm28.00	Z-1661
11:56:49.401 -> LandDetectg0	cm28.00	Z-1661
11:56:49.401 -> LandDetectg0	cm28.00	Z-1661
11:56:49.401 -> LandDetectg0	cm28.00	Z-1661
11:56:49.401 -> LandDetectg0	cm28.00	Z-1661
11:56:49.401 -> LandDetectg0	cm28.00	Z-1661
11:56:49.401 -> LandDetectg0	cm28.00	Z-1661
11:56:49.401 -> LandDetectg0	cm28.00	Z-1661
11:56:49.401 -> LandDetectg0	cm28.00	Z-1661
11:56:49.401 -> LandDetectg0	cm28.00	Z-1661
11:56:49.401 -> LandDetectg0	cm28.00	Z-1661
11:56:49.401 -> LandDetectg0	cm28.00	Z-1661
11:56:49.401 -> LandDetectg0	cm28.00	Z-1661
11:56:49.401 -> LandDetectg0	cm28.00	Z-1661
11:56:49.401 -> LandDetectg0	cm28.00	Z-1661
11:56:49.401 -> LandDetectg0	cm28.00	Z-1661
11:56:49.401 -> LandDetectg0	cm28.00	Z-1661
11:56:49.401 -> LandDetectg0	cm28.00	Z-1661
11:56:49.401 -> LandDetectg0	cm28.00	Z-1661
11:56:49.401 -> LandDetectg0	cm28.00	Z-1661
11:56:49.401 -> LandDetectg0	cm28.00	Z-1661
11:56:49.401 -> LandDetectg0	cm28.00	Z-1661
11:56:49.401 -> LandDetectg0	cm28.00	Z-1661
11:56:49.401 -> LandDetectg0	cm28.00	Z-1661
11:56:49.401 -> LandDetectg0	cm28.00	Z-1661
11:56:49.401 -> LandDetectg0	cm28.00	Z-1661
11:56:49.401 -> LandDetectg0	cm28.00	Z-1661
11:56:49.401 -> LandDetectg0	cm28.00	Z-1661
11:56:49.401 -> LandDetectg0	cm28.00	Z-1661
11:56:49.401 -> LandDetectg0	cm28.00	Z-1661
11:56:49.401 -> LandDetectg0	cm28.00	Z-1661
11:56:49.401 -> LandDetectg0	cm28.00	Z-1661
11:56:49.401 -> LandDetectg0	cm28.00	Z-1661
11:56:49.401 -> LandDetectg0	cm28.00	Z-1661
11:56:49.401 -> LandDetectg0	cm28.00	Z-1661
11:56:49.401 -> LandDetectg0	cm28.00	Z-1661
11:56:49.401 -> LandDetectg0	cm28.00	Z-1661
11:56:49.401 -> LandDetectg0	cm28.00	Z-1661
11:56:49.401 -> LandDetectg0	cm28.00	Z-1661
11:56:49.401 -> LandDetectg0	cm28.00	Z-1661
11:56:49.401 -> LandDetectg0	cm28.00	Z-1661
11:56:49.401 -> LandDetectg0	cm28.00	Z-1661
11:56:49.401 -> LandDetectg0	cm28.00	Z-1661
11:56:49.401 -> LandDetectg0	cm28.00	Z-1661
11:56:49.401 -> LandDetectg0	cm28.00	Z-1661
11:56:49.401 -> LandDetectg0	cm28.00	Z-1661
11:56:49.401 -> LandDetectg0	cm28.00	Z-1661
11:56:49.401 -> LandDetectg0	cm28.00	Z-1661
11:56:49.401 -> LandDetectg0	cm28.00	Z-1661
11:56:49.401 -> LandDetectg0	cm28.00	Z-1661
11:56:49.401 -> LandDetectg0	cm28.00	Z-1661
11:56:49.401 -> LandDetectg0	cm28.00	Z-1661
11:56:49.401 -> LandDetectg0	cm28.00	Z-1661
11:56:49.401 -> LandDetectg0	cm28.00	Z-1661
11:56:49.401 -> LandDetectg0	cm28.00	Z-1661
11:56:49.401 -> LandDetectg0	cm28.00	Z-1661
11:56:49.401 -> LandDetectg0	cm28.00	Z-1661
11:56:49.401 -> LandDetectg0	cm28.00	Z-1661
11:56:49.401 -> LandDetectg0	cm28.00	Z-1661
11:56:49.401 -> LandDetectg0	cm28.00	Z-1661
11:56:49.401 -> LandDetectg0	cm28.00	Z-1661
11:56:49.401 -> LandDetectg0	cm28.00	Z-1661
11:56:49.401 -> LandDetectg0	cm28.00	Z-1661
11:56:49.401 -> LandDetectg0	cm28.00	Z-1661
11:56:49.401 -> LandDetectg0	cm28.00	Z-1661
11:56:49.401 -> LandDetectg0	cm28.00	Z-1661
11:56:49.401 -> LandDetectg0	cm28.00	Z-1661
11:56:49.401 -> LandDetectg0	cm28.00	Z-1661
11:56:49.401 -> LandDetectg0	cm28.00	Z-1661
11:56:49.401 -> LandDetectg0	cm28.00	Z-1661
11:56:49.401 -> LandDetectg0	cm28.00	Z-1661
11:56:49.401 -> LandDetectg0	cm28.00	Z-1661
11:56:49.401 -> LandDetectg0	cm28.00	Z-1661
11:56:49.401 -> LandDetectg0	cm28.00	Z-1661
11:56:49.401 -> LandDetectg0	cm28.00	Z-1661
11:56:49.401 -> LandDetectg0	cm28.00	Z-1661
11:56:49.401 -> LandDetectg0	cm28.00	Z-1661
11:56:49.401 -> LandDetectg0	cm28.00	Z-1661
11:56:49.401 -> LandDetectg0	cm28.00	Z-1661
11:56:49.401 -> LandDetectg0	cm28.00	Z-1661
11:56:49.401 -> LandDetectg0	cm28.00	Z-1661
11:56:49.401 -> LandDetectg0	cm28.00	Z-1661
11:56:49.401 -> LandDetectg0	cm28.00	Z-1661
11:56:49.401 -> LandDetect0, -40.00, 0.00, -0.23, 4, 0, 0, 0, 0, -0.0134, -0.0589, -882, 1, 28.00
11:56:49.434 -> 0, -40.00, 0.00, -0.23, 4, 0, 0, 0, 0, -0.0134, -0.0589, -930, 0, 28.00
11:56:49.434 -> 0, -40.00, 0.00, -0.23, 4, 0, 0, 0, 0, -0.0134, -0.0589, -930, 0, 28.00
11:56:49.467 -> 0, -40.00, 0.00, -0.11, 4, 0, 0, 0, 0, -0.0134, -0.0589, -630, 0, 28.00
11:56:49.501 -> 0, -40.00, 0.00, -0.11, 4, 0, 0, 0, 0, -0.0134, -0.0589, -969, 0, 28.00
11:56:49.501 -> 0, -40.00, 0.00, -0.11, 4, 0, 0, 0, 0, -0.0242, -0.0095, -969, 0, 28.00
11:56:49.534 -> 0, -40.00, 0.00, -0.11, 4, 0, 0, 0, 0, -0.0242, -0.0095, -969, 0, 28.00
11:56:49.567 -> 0, -40.00, 0.00, -0.11, 4, 0, 0, 0, 0, -0.0242, -0.0095, -509, 0, 28.00
11:56:49.567 -> 0, -40.00, 0.00, 0.59, 4, 0, 0, 0, 0, -0.0242, -0.0095, -731, 0, 28.00
11:56:49.600 -> 0, -40.00, 0.00, 0.59, 4, 0, 0, 0, 0, -0.0242, -0.0095, -731, 0, 28.00
11:56:49.633 -> 0, -40.00, 0.00, 0.59, 4, 0, 0, 0, 0, -0.0242, -0.0095, -731, 0, 28.00
11:56:49.633 -> 0, -40.00, 0.00, 0.59, 4, 0, 0, 0, 0, -0.0242, -0.0095, -749, 0, 28.00
11:56:49.666 -> 0, -40.00, 0.00, 0.59, 4, 0, 0, 0, 0, -0.0242, -0.0095, -1103, 0, 28.00
11:56:49.666 -> 0, -40.00, 0.00, 0.59, 4, 0, 0, 0, 0, -0.0242, -0.0095, -1103, 0, 28.00
11:56:49.699 -> 0, -40.00, 0.00, 0.59, 4, 0, 0, 0, 0, -0.0252, -0.0014, -1060, 0, 28.00
11:56:49.733 -> 0, -40.00, 0.00, 0.59, 4, 0, 0, 0, 0, -0.0252, -0.0014, -1060, 0, 28.00
11:56:49.733 -> 0, -40.00, 0.00, 0.59, 4, 0, 0, 0, 0, -0.0252, -0.0014, -1060, 0, 28.00
11:56:49.766 -> 0, -40.00, 0.00, 0.59, 4, 0, 0, 0, 0, -0.0252, -0.0014, -1115, 0, 26.00
11:56:49.799 -> 0, -40.00, 0.00, -1.29, 4, 0, 0, 0, 0, -0.0252, -0.0014, -973, 0, 26.00
11:56:49.799 -> 0, -40.00, 0.00, -1.29, 4, 0, 0, 0, 0, -0.0252, -0.0014, -973, 0, 26.00
11:56:49.832 -> 0, -40.00, 0.00, -1.29, 4, 0, 0, 0, 0, -0.0252, -0.0014, -1097, 0, 26.00
11:56:49.865 -> 0, -40.00, 0.00, -1.29, 4, 0, 0, 0, 0, -0.0247, -0.0009, -1097, 0, 26.00
11:56:49.865 -> 0, -40.00, 0.00, -1.27, 4, 0, 0, 0, 0, -0.0247, -0.0009, -1045, 0, 26.00
11:56:49.898 -> 0, -40.00, 0.00, -1.27, 4, 0, 0, 0, 0, -0.0247, -0.0009, -1045, 0, 26.00
11:56:49.898 -> 0, -40.00, 0.00, -1.27, 4, 0, 0, 0, 0, -0.0247, -0.0009, -1045, 0, 27.00
11:56:49.932 -> 0, -40.00, 0.00, -1.27, 4, 0, 0, 0, 0, -0.0247, -0.0009, -1042, 0, 27.00
11:56:49.965 -> 0, -40.00, 0.00, -1.27, 4, 0, 0, 0, 0, -0.0247, -0.0009, -1070, 0, 27.00
11:56:49.965 -> 0, -40.00, 0.00, -0.27, 4, 0, 0, 0, 0, -0.0247, -0.0009, -975, 0, 27.00
11:56:49.998 -> 0, -40.00, 0.00, -0.27, 4, 0, 0, 0, 0, -0.0247, -0.0009, -975, 0, 27.00
11:56:50.031 -> 0, -40.00, 0.00, -0.27, 4, 0, 0, 0, 0, -0.0247, -0.0010, -1029, 0, 27.00
11:56:50.031 -> 0, -40.00, 0.00, -0.27, 4, 0, 0, 0, 0, -0.0247, -0.0010, -1029, 0, 27.00
11:56:50.064 -> 0, -40.00, 0.00, -0.27, 4, 0, 0, 0, 0, -0.0247, -0.0010, -1013, 0, 27.00
11:56:50.064 -> 0, -40.00, 0.00, -0.28, 4, 0, 0, 0, 0, -0.0247, -0.0010, -1013, 0, 27.00
11:56:50.098 -> 0, -40.00, 0.00, -0.28, 4, 0, 0, 0, 0, -0.0247, -0.0010, -1013, 0, 26.00
11:56:50.131 -> 0, -40.00, 0.00, -0.28, 4, 0, 0, 0, 0, -0.0247, -0.0010, -1013, 0, 26.00
11:56:50.131 -> 0, -40.00, 0.00, -0.28, 4, 0, 0, 0, 0, -0.0247, -0.0010, -1013, 0, 26.00
11:56:50.164 -> 0, -40.00, 0.00, -0.28, 4, 0, 0, 0, 0, -0.0247, -0.0010, -1013, 0, 26.00
11:56:50.197 -> 0, -40.00, 0.00, -1.28, 4, 0, 0, 0, 0, -0.0247, -0.0010, -1017, 0, 26.00
11:56:50.197 -> 0, -40.00, 0.00, -1.28, 4, 0, 0, 0, 0, -0.0246, -0.0014, -1008, 0, 26.00
11:56:50.230 -> 0, -40.00, 0.00, -1.28, 4, 0, 0, 0, 0, -0.0246, -0.0014, -1016, 0, 26.00
11:56:50.263 -> 0, -40.00, 0.00, -1.28, 4, 0, 0, 0, 0, -0.0246, -0.0014, -1016, 0, 26.00
11:56:50.263 -> 0, -40.00, 0.00, -1.28, 4, 0, 0, 0, 0, -0.0246, -0.0014, -1013, 0, 26.00
11:56:50.296 -> 0, -40.00, 0.00, -1.28, 4, 0, 0, 0, 0, -0.0246, -0.0014, -1013, 0, 26.00
11:56:50.296 -> 0, -40.00, 0.00, -1.28, 4, 0, 0, 0, 0, -0.0246, -0.0014, -1001, 0, 26.00
11:56:50.329 -> 0, -40.00, 0.00, -1.28, 4, 0, 0, 0, 0, -0.0246, -0.0014, -1013, 0, 26.00
11:56:50.362 -> 0, -40.00, 0.00, -1.28, 4, 0, 0, 0, 0, -0.0247, -0.0013, -1013, 0, 26.00
11:56:50.362 -> 0, -40.00, 0.00, -1.28, 4, 0, 0, 0, 0, -0.0247, -0.0013, -1007, 0, 26.00
11:56:50.396 -> 0, -40.00, 0.00, -1.28, 4, 0, 0, 0, 0, -0.0247, -0.0013, -1007, 0, 26.00
11:56:50.429 -> 0, -40.00, 0.00, -1.28, 4, 0, 0, 0, 0, -0.0247, -0.0013, -1023, 0, 26.00
11:56:50.429 -> 0, -40.00, 0.00, -1.28, 4, 0, 0, 0, 0, -0.0247, -0.0013, -1023, 0, 26.00
11:56:50.462 -> 0, -40.00, 0.00, -1.28, 4, 0, 0, 0, 0, -0.0247, -0.0013, -1023, 0, 26.00
11:56:50.495 -> 0, -40.00, 0.00, -1.28, 4, 0, 0, 0, 0, -0.0247, -0.0013, -1018, 0, 26.00
11:56:50.495 -> 0, -40.00, 0.00, -1.28, 4, 0, 0, 0, 0, -0.0247, -0.0013, -1018, 0, 26.00
11:56:50.528 -> 0, -40.00, 0.00, -1.28, 4, 0, 0, 0, 0, -0.0247, -0.0013, -1010, 0, 26.00
11:56:50.528 -> 0, -40.00, 0.00, -1.28, 4, 0, 0, 0, 0, -0.0247, -0.0014, -1010, 0, 26.00
11:56:50.561 -> 0, -40.00, 0.00, -1.28, 4, 0, 0, 0, 0, -0.0247, -0.0014, -1010, 0, 26.00
11:56:50.594 -> 0, -40.00, 0.00, -1.28, 4, 0, 0, 0, 0, -0.0247, -0.0014, -1016, 0, 26.00
11:56:50.594 -> 0, -40.00, 0.00, -1.28, 4, 0, 0, 0, 0, -0.0247, -0.0014, -1016, 0, 26.00
11:56:50.627 -> 0, -40.00, 0.00, -1.28, 4, 0, 0, 0, 0, -0.0247, -0.0014, -1016, 0, 26.00
11:56:50.660 -> 0, -40.00, 0.00, -1.28, 4, 0, 0, 0, 0, -0.0247, -0.0014, -1016, 0, 26.00
11:56:50.660 -> 0, -40.00, 0.00, -1.28, 4, 0, 0, 0, 0, -0.0247, -0.0014, -1016, 0, 26.00
11:56:50.694 -> 0, -40.00, 0.00, -1.28, 4, 0, 0, 0, 0, -0.0247, -0.0014, -1016, 0, 26.00
11:56:50.727 -> 0, -40.00, 0.00, -1.28, 4, 0, 0, 0, 0, -0.0247, -0.0014, -1016, 0, 26.00
11:56:50.727 -> 0, -40.00, 0.00, -1.28, 4, 0, 0, 0, 0, -0.0247, -0.0014, -1016, 0, 26.00
11:56:50.760 -> 0, -40.00, 0.00, -1.28, 4, 0, 0, 0, 0, -0.0247, -0.0014, -1016, 0, 26.00
11:56:50.760 -> 0, -40.00, 0.00, -1.28, 4, 0, 0, 0, 0, -0.0247, -0.0014, -1016, 0, 26.00
11:56:50.793 -> 0, -40.00, 0.00, -1.28, 4, 0, 0, 0, 0, -0.0247, -0.0014, -1009, 0, 26.00
11:56:50.826 -> 0, -40.00, 0.00, -1.28, 4, 0, 0, 0, 0, -0.0247, -0.0014, -1009, 0, 26.00
11:56:50.826 -> 0, -40.00, 0.00, -1.28, 4, 0, 0, 0, 0, -0.0247, -0.0014, -1016, 0, 26.00
11:56:50.860 -> 0, -40.00, 0.00, -1.28, 4, 0, 0, 0, 0, -0.0247, -0.0014, -1011, 0, 26.00
11:56:50.893 -> 0, -40.00, 0.00, -1.28, 4, 0, 0, 0, 0, -0.0247, -0.0014, -1011, 0, 26.00
11:56:50.893 -> 0, -40.00, 0.00, -1.28, 4, 0, 0, 0, 0, -0.0247, -0.0014, -1014, 0, 26.00
11:56:50.926 -> 0, -40.00, 0.00, -1.28, 4, 0, 0, 0, 0, -0.0247, -0.0015, -1014, 0, 26.00
11:56:50.926 -> 0, -40.00, 0.00, -1.28, 4, 0, 0, 0, 0, -0.0247, -0.0015, -1017, 0, 26.00
11:56:50.959 -> 0, -40.00, 0.00, -1.28, 4, 0, 0, 0, 0, -0.0247, -0.0015, -1017, 0, 26.00
11:56:50.992 -> 0, -40.00, 0.00, -1.28, 4, 0, 0, 0, 0, -0.0247, -0.0015, -1012, 0, 26.00
11:56:50.992 -> 0, -40.00, 0.00, -1.28, 4, 0, 0, 0, 0, -0.0247, -0.0015, -1012, 0, 26.00
11:56:51.025 -> 0, -40.00, 0.00, -1.28, 4, 0, 0, 0, 0, -0.0247, -0.0015, -1012, 0, 27.00
11:56:51.059 -> 0, -40.00, 0.00, -1.28, 4, 0, 0, 0, 0, -0.0247, -0.0015, -1013, 0, 27.00
11:56:51.059 -> 0, -40.00, 0.00, -1.28, 4, 0, 0, 0, 0, -0.0247, -0.0015, -1013, 0, 27.00
11:56:51.092 -> 0, -40.00, 0.00, -0.28, 4, 0, 0, 0, 0, -0.0247, -0.0015, -1013, 0, 27.00
11:56:51.125 -> 0, -40.00, 0.00, -0.28, 4, 0, 0, 0, 0, -0.0247, -0.0015, -1013, 0, 27.00
11:56:51.125 -> 0, -40.00, 0.00, -0.28, 4, 0, 0, 0, 0, -0.0247, -0.0015, -1013, 0, 27.00
11:56:51.158 -> 0, -40.00, 0.00, -0.28, 4, 0, 0, 0, 0, -0.0247, -0.0015, -1015, 0, 27.00
11:56:51.158 -> 0, -40.00, 0.00, -0.28, 4, 0, 0, 0, 0, -0.0247, -0.0015, -1015, 0, 27.00
11:56:51.191 -> 0, -40.00, 0.00, -0.28, 4, 0, 0, 0, 0, -0.0247, -0.0015, -1015, 0, 27.00
11:56:51.225 -> 0, -40.00, 0.00, -0.28, 4, 0, 0, 0, 0, -0.0247, -0.0015, -1015, 0, 27.00
11:56:51.225 -> 0, -40.00, 0.00, -0.28, 4, 0, 0, 0, 0, -0.0247, -0.0015, -1015, 0, 27.00
11:56:51.258 -> 0, -40.00, 0.00, -0.28, 4, 0, 0, 0, 0, -0.0247, -0.0015, -1015, 0, 27.00
11:56:51.291 -> 0, -40.00, 0.00, -0.28, 4, 0, 0, 0, 0, -0.0247, -0.0015, -1013, 0, 27.00
11:56:51.291 -> 0, -40.00, 0.00, -0.28, 4, 0, 0, 0, 0, -0.0247, -0.0016, -1015, 0, 27.00
11:56:51.324 -> 0, -40.00, 0.00, -0.28, 4, 0, 0, 0, 0, -0.0247, -0.0016, -1015, 0, 27.00
11:56:51.357 -> 0, -40.00, 0.00, -0.28, 4, 0, 0, 0, 0, -0.0247, -0.0016, -1015, 0, 27.00
11:56:51.357 -> 0, -40.00, 0.00, -0.28, 4, 0, 0, 0, 0, -0.0247, -0.0015, -1014, 0, 27.00
11:56:51.390 -> 0, -40.00, 0.00, -0.28, 4, 0, 0, 0, 0, -0.0247, -0.0015, -1015, 0, 27.00
11:56:51.390 -> 0, -40.00, 0.00, -0.29, 4, 0, 0, 0, 0, -0.0247, -0.0015, -1015, 0, 26.00
11:56:51.423 -> 0, -40.00, 0.00, -0.29, 4, 0, 0, 0, 0, -0.0247, -0.0015, -1015, 0, 26.00
11:56:51.456 -> 0, -40.00, 0.00, -0.29, 4, 0, 0, 0, 0, -0.0247, -0.0015, -1017, 0, 26.00
11:56:51.456 -> 0, -40.00, 0.00, -0.29, 4, 0, 0, 0, 0, -0.0247, -0.0015, -1015, 0, 26.00
11:56:51.490 -> 0, -40.00, 0.00, -1.28, 4, 0, 0, 0, 0, -0.0247, -0.0015, -1015, 0, 26.00
11:56:51.523 -> 0, -40.00, 0.00, -1.28, 4, 0, 0, 0, 0, -0.0247, -0.0015, -1014, 0, 26.00
11:56:51.523 -> 0, -40.00, 0.00, -1.28, 4, 0, 0, 0, 0, -0.0247, -0.0015, -1014, 0, 26.00
11:56:51.556 -> 0, -40.00, 0.00, -1.28, 4, 0, 0, 0, 0, -0.0247, -0.0016, -1014, 0, 26.00
11:56:51.556 -> 0, -40.00, 0.00, -1.28, 4, 0, 0, 0, 0, -0.0247, -0.0016, -1014, 0, 26.00
11:56:51.589 -> 0, -40.00, 0.00, -1.29, 4, 0, 0, 0, 0, -0.0247, -0.0016, -1014, 0, 26.00
11:56:51.622 -> 0, -40.00, 0.00, -1.29, 4, 0, 0, 0, 0, -0.0247, -0.0016, -1015, 0, 26.00
11:56:51.622 -> 0, -40.00, 0.00, -1.29, 4, 0, 0, 0, 0, -0.0247, -0.0016, -1015, 0, 26.00
11:56:51.655 -> 0, -40.00, 0.00, -1.29, 4, 0, 0, 0, 0, -0.0247, -0.0016, -1014, 0, 26.00
11:56:51.688 -> 0, -40.00, 0.00, -1.29, 4, 0, 0, 0, 0, -0.0247, -0.0016, -1014, 0, 26.00
11:56:51.688 -> 0, -40.00, 0.00, -1.29, 4, 0, 0, 0, 0, -0.0247, -0.0016, -1012, 0, 26.00
11:56:51.721 -> 0, -40.00, 0.00, -1.29, 4, 0, 0, 0, 0, -0.0248, -0.0018, -1012, 0, 26.00
11:56:51.755 -> 0, -40.00, 0.00, -1.29, 4, 0, 0, 0, 0, -0.0248, -0.0018, -1015, 0, 26.00
11:56:51.755 -> 0, -40.00, 0.00, -1.29, 4, 0, 0, 0, 0, -0.0248, -0.0018, -1015, 0, 26.00
11:56:51.788 -> 0, -40.00, 0.00, -1.29, 4, 0, 0, 0, 0, -0.0248, -0.0018, -1012, 0, 26.00
11:56:51.788 -> 0, -40.00, 0.00, -1.29, 4, 0, 0, 0, 0, -0.0248, -0.0018, -1012, 0, 27.00
11:56:51.821 -> 0, -40.00, 0.00, -1.29, 4, 0, 0, 0, 0, -0.0248, -0.0018, -1012, 0, 27.00
11:56:51.854 -> 0, -40.00, 0.00, -1.29, 4, 0, 0, 0, 0, -0.0248, -0.0018, -1012, 0, 27.00
11:56:51.854 -> 0, -40.00, 0.00, -1.29, 4, 0, 0, 0, 0, -0.0248, -0.0018, -1014, 0, 27.00
11:56:51.887 -> 0, -40.00, 0.00, -1.29, 4, 0, 0, 0, 0, -0.0248, -0.0018, -1015, 0, 27.00
11:56:51.920 -> 0, -40.00, 0.00, -0.29, 4, 0, 0, 0, 0, -0.0248, -0.0018, -1013, 0, 27.00
11:56:51.920 -> 0, -40.00, 0.00, -0.29, 4, 0, 0, 0, 0, -0.0248, -0.0018, -1013, 0, 27.00
11:56:51.953 -> 0, -40.00, 0.00, -0.29, 4, 0, 0, 0, 0, -0.0248, -0.0018, -1014, 0, 27.00
11:56:51.986 -> 0, -40.00, 0.00, -0.29, 4, 0, 0, 0, 0, -0.0248, -0.0018, -1014, 0, 27.00
11:56:51.986 -> 0, -40.00, 0.00, -0.29, 4, 0, 0, 0, 0, -0.0248, -0.0018, -1010, 0, 27.00
11:56:52.020 -> 0, -40.00, 0.00, -0.29, 4, 0, 0, 0, 0, -0.0248, -0.0018, -1017, 0, 26.00
11:56:52.020 -> 0, -40.00, 0.00, -0.29, 4, 0, 0, 0, 0, -0.0248, -0.0018, -1017, 0, 26.00
11:56:52.053 -> 0, -40.00, 0.00, -0.29, 4, 0, 0, 0, 0, -0.0248, -0.0018, -1013, 0, 26.00
11:56:52.086 -> 0, -40.00, 0.00, -0.29, 4, 0, 0, 0, 0, -0.0248, -0.0018, -1013, 0, 26.00
11:56:52.086 -> 0, -40.00, 0.00, -1.29, 4, 0, 0, 0, 0, -0.0248, -0.0018, -1016, 0, 26.00
11:56:52.119 -> 0, -40.00, 0.00, -1.29, 4, 0, 0, 0, 0, -0.0248, -0.0018, -1016, 0, 26.00
11:56:52.152 -> 0, -40.00, 0.00, -1.29, 4, 0, 0, 0, 0, -0.0248, -0.0018, -1016, 0, 26.00
11:56:52.152 -> 0, -40.00, 0.00, -1.29, 4, 0, 0, 0, 0, -0.0248, -0.0018, -1012, 0, 27.00
11:56:52.185 -> 0, -40.00, 0.00, -1.29, 4, 0, 0, 0, 0, -0.0248, -0.0018, -1012, 0, 27.00
11:56:52.185 -> 0, -40.00, 0.00, -0.29, 4, 0, 0, 0, 0, -0.0248, -0.0019, -1015, 0, 27.00
11:56:52.219 -> 0, -40.00, 0.00, -0.29, 4, 0, 0, 0, 0, -0.0248, -0.0019, -1012, 0, 27.00
11:56:52.252 -> 0, -40.00, 0.00, -0.29, 4, 0, 0, 0, 0, -0.0248, -0.0019, -1012, 0, 27.00
11:56:52.252 -> 0, -40.00, 0.00, -0.29, 4, 0, 0, 0, 0, -0.0248, -0.0019, -1012, 0, 27.00
11:56:52.285 -> 0, -40.00, 0.00, -0.29, 4, 0, 0, 0, 0, -0.0248, -0.0019, -1013, 0, 27.00
11:56:52.318 -> 0, -40.00, 0.00, -0.29, 4, 0, 0, 0, 0, -0.0248, -0.0019, -1017, 0, 27.00
11:56:52.318 -> 0, -40.00, 0.00, -0.29, 4, 0, 0, 0, 0, -0.0248, -0.0019, -1017, 0, 27.00
11:56:52.351 -> 0, -40.00, 0.00, -0.29, 4, 0, 0, 0, 0, -0.0248, -0.0019, -1013, 0, 27.00
11:56:52.384 -> 0, -40.00, 0.00, -0.29, 4, 0, 0, 0, 0, -0.0248, -0.0019, -1013, 0, 27.00
11:56:52.384 -> 0, -40.00, 0.00, -0.29, 4, 0, 0, 0, 0, -0.0248, -0.0019, -1014, 0, 27.00
11:56:52.417 -> 0, -40.00, 0.00, -0.29, 4, 0, 0, 0, 0, -0.0248, -0.0019, -1014, 0, 27.00
11:56:52.417 -> 0, -40.00, 0.00, -0.29, 4, 0, 0, 0, 0, -0.0248, -0.0019, -1011, 0, 27.00
11:56:52.451 -> 0, -40.00, 0.00, -0.29, 4, 0, 0, 0, 0, -0.0248, -0.0019, -1014, 0, 27.00
11:56:52.484 -> 0, -40.00, 0.00, -0.29, 4, 0, 0, 0, 0, -0.0248, -0.0019, -1014, 0, 27.00
11:56:52.484 -> 0, -40.00, 0.00, -0.29, 4, 0, 0, 0, 0, -0.0248, -0.0019, -1015, 0, 27.00
11:56:52.517 -> 0, -40.00, 0.00, -0.29, 4, 0, 0, 0, 0, -0.0249, -0.0019, -1015, 0, 27.00
11:56:52.550 -> 0, -40.00, 0.00, -0.29, 4, 0, 0, 0, 0, -0.0249, -0.0019, -1015, 0, 27.00
11:56:52.550 -> 0, -40.00, 0.00, -0.29, 4, 0, 0, 0, 0, -0.0249, -0.0019, -1012, 0, 27.00
11:56:52.583 -> 0, -40.00, 0.00, -0.29, 4, 0, 0, 0, 0, -0.0249, -0.0019, -1014, 0, 27.00
11:56:52.616 -> 0, -40.00, 0.00, -0.29, 4, 0, 0, 0, 0, -0.0249, -0.0019, -1014, 0, 27.00
11:56:52.616 -> 0, -40.00, 0.00, -0.29, 4, 0, 0, 0, 0, -0.0249, -0.0019, -1017, 0, 27.00
11:56:52.650 -> 0, -40.00, 0.00, -0.29, 4, 0, 0, 0, 0, -0.0249, -0.0019, -1017, 0, 27.00
11:56:52.650 -> 0, -40.00, 0.00, -0.29, 4, 0, 0, 0, 0, -0.0249, -0.0019, -1017, 0, 27.00
11:56:52.682 -> 0, -40.00, 0.00, -0.29, 4, 0, 0, 0, 0, -0.0250, -0.0020, -1015, 0, 27.00
11:56:52.716 -> 0, -40.00, 0.00, -0.30, 4, 0, 0, 0, 0, -0.0250, -0.0020, -1015, 0, 27.00
11:56:52.716 -> 0, -40.00, 0.00, -0.30, 4, 0, 0, 0, 0, -0.0250, -0.0020, -1013, 0, 27.00
11:56:52.749 -> 0, -40.00, 0.00, -0.30, 4, 0, 0, 0, 0, -0.0250, -0.0020, -1013, 0, 27.00
11:56:52.782 -> 0, -40.00, 0.00, -0.30, 4, 0, 0, 0, 0, -0.0250, -0.0020, -1013, 0, 27.00
11:56:52.782 -> 0, -40.00, 0.00, -0.30, 4, 0, 0, 0, 0, -0.0250, -0.0020, -1012, 0, 27.00
11:56:52.815 -> 0, -40.00, 0.00, -0.30, 4, 0, 0, 0, 0, -0.0250, -0.0020, -1012, 0, 27.00
11:56:52.848 -> 0, -40.00, 0.00, -0.30, 4, 0, 0, 0, 0, -0.0250, -0.0021, -1013, 0, 27.00
11:56:52.848 -> 0, -40.00, 0.00, -0.30, 4, 0, 0, 0, 0, -0.0250, -0.0021, -1013, 0, 27.00
11:56:52.881 -> 0, -40.00, 0.00, -0.30, 4, 0, 0, 0, 0, -0.0250, -0.0021, -1013, 0, 27.00
11:56:52.881 -> 0, -40.00, 0.00, -0.30, 4, 0, 0, 0, 0, -0.0250, -0.0021, -1013, 0, 27.00
11:56:52.914 -> 0, -40.00, 0.00, -0.30, 4, 0, 0, 0, 0, -0.0250, -0.0021, -1017, 0, 27.00
11:56:52.947 -> 0, -40.00, 0.00, -0.30, 4, 0, 0, 0, 0, -0.0250, -0.0021, -1015, 0, 27.00
11:56:52.947 -> 0, -40.00, 0.00, -0.30, 4, 0, 0, 0, 0, -0.0250, -0.0021, -1015, 0, 27.00
11:56:52.981 -> 0, -40.00, 0.00, -0.30, 4, 0, 0, 0, 0, -0.0250, -0.0021, -1010, 0, 27.00
11:56:53.014 -> 0, -40.00, 0.00, -0.30, 4, 0, 0, 0, 0, -0.0252, -0.0020, -1010, 0, 27.00
11:56:53.014 -> 0, -40.00, 0.00, -0.30, 4, 0, 0, 0, 0, -0.0252, -0.0020, -1013, 0, 27.00
11:56:53.047 -> 0, -40.00, 0.00, -0.30, 4, 0, 0, 0, 0, -0.0252, -0.0020, -1013, 0, 27.00
11:56:53.047 -> 0, -40.00, 0.00, -0.30, 4, 0, 0, 0, 0, -0.0252, -0.0020, -1013, 0, 27.00
11:56:53.080 -> 0, -40.00, 0.00, -0.30, 4, 0, 0, 0, 0, -0.0252, -0.0020, -1014, 0, 27.00
11:56:53.113 -> 0, -40.00, 0.00, -1.30, 4, 0, 0, 0, 0, -0.0252, -0.0020, -1014, 0, 26.00
11:56:53.113 -> 0, -40.00, 0.00, -1.30, 4, 0, 0, 0, 0, -0.0252, -0.0020, -1015, 0, 26.00
11:56:53.146 -> 0, -40.00, 0.00, -1.30, 4, 0, 0, 0, 0, -0.0252, -0.0020, -1015, 0, 26.00
11:56:53.180 -> 0, -40.00, 0.00, -1.30, 4, 0, 0, 0, 0, -0.0252, -0.0020, -1015, 0, 26.00
11:56:53.180 -> 0, -40.00, 0.00, -1.30, 4, 0, 0, 0, 0, -0.0252, -0.0020, -1010, 0, 26.00
11:56:53.213 -> 0, -40.00, 0.00, -1.30, 4, 0, 0, 0, 0, -0.0251, -0.0021, -1010, 0, 26.00
11:56:53.246 -> 0, -40.00, 0.00, -1.30, 4, 0, 0, 0, 0, -0.0251, -0.0021, -1013, 0, 26.00
11:56:53.246 -> 0, -40.00, 0.00, -1.30, 4, 0, 0, 0, 0, -0.0251, -0.0021, -1013, 0, 26.00
11:56:53.279 -> 0, -40.00, 0.00, -1.30, 4, 0, 0, 0, 0, -0.0251, -0.0021, -1016, 0, 26.00
11:56:53.279 -> 0, -40.00, 0.00, -1.30, 4, 0, 0, 0, 0, -0.0251, -0.0021, -1007, 0, 26.00
11:56:53.312 -> 0, -40.00, 0.00, -1.30, 4, 0, 0, 0, 0, -0.0251, -0.0021, -1007, 0, 26.00
11:56:53.345 -> 0, -40.00, 0.00, -1.30, 4, 0, 0, 0, 0, -0.0251, -0.0021, -1015, 0, 26.00
11:56:53.345 -> 0, -40.00, 0.00, -1.30, 4, 0, 0, 0, 0, -0.0251, -0.0021, -1015, 0, 26.00
11:56:53.378 -> 0, -40.00, 0.00, -1.30, 4, 0, 0, 0, 0, -0.0251, -0.0021, -1015, 0, 26.00
11:56:53.412 -> 0, -40.00, 0.00, -1.30, 4, 0, 0, 0, 0, -0.0251, -0.0021, -1015, 0, 26.00
11:56:53.412 -> 0, -40.00, 0.00, -1.30, 4, 0, 0, 0, 0, -0.0251, -0.0021, -1010, 0, 26.00
11:56:53.445 -> 0, -40.00, 0.00, -1.30, 4, 0, 0, 0, 0, -0.0251, -0.0021, -1010, 0, 26.00
11:56:53.445 -> 0, -40.00, 0.00, -1.30, 4, 0, 0, 0, 0, -0.0251, -0.0021, -1017, 0, 26.00
11:56:53.478 -> 0, -40.00, 0.00, -1.30, 4, 0, 0, 0, 0, -0.0251, -0.0021, -1017, 0, 26.00
11:56:53.511 -> 0, -40.00, 0.00, -1.30, 4, 0, 0, 0, 0, -0.0252, -0.0020, -1014, 0, 26.00
11:56:53.511 -> 0, -40.00, 0.00, -1.30, 4, 0, 0, 0, 0, -0.0252, -0.0020, -1014, 0, 26.00
11:56:53.544 -> 0, -40.00, 0.00, -1.30, 4, 0, 0, 0, 0, -0.0252, -0.0020, -1010, 0, 26.00
11:56:53.577 -> 0, -40.00, 0.00, -1.30, 4, 0, 0, 0, 0, -0.0252, -0.0020, -1010, 0, 26.00
11:56:53.577 -> 0, -40.00, 0.00, -1.30, 4, 0, 0, 0, 0, -0.0252, -0.0020, -1010, 0, 26.00
11:56:53.610 -> 0, -40.00, 0.00, -1.30, 4, 0, 0, 0, 0, -0.0252, -0.0020, -1013, 0, 26.00
11:56:53.643 -> 0, -40.00, 0.00, -1.30, 4, 0, 0, 0, 0, -0.0252, -0.0020, -1013, 0, 26.00
11:56:53.643 -> 0, -40.00, 0.00, -1.30, 4, 0, 0, 0, 0, -0.0252, -0.0021, -1013, 0, 27.00
11:56:53.677 -> 0, -40.00, 0.00, -1.30, 4, 0, 0, 0, 0, -0.0252, -0.0021, -1013, 0, 27.00
11:56:53.677 -> 0, -40.00, 0.00, -1.30, 4, 0, 0, 0, 0, -0.0252, -0.0021, -1013, 0, 27.00
11:56:53.710 -> 0, -40.00, 0.00, -0.30, 4, 0, 0, 0, 0, -0.0252, -0.0021, -1013, 0, 27.00
11:56:53.743 -> 0, -40.00, 0.00, -0.30, 4, 0, 0, 0, 0, -0.0252, -0.0021, -1009, 0, 27.00
11:56:53.743 -> 0, -40.00, 0.00, -0.30, 4, 0, 0, 0, 0, -0.0252, -0.0021, -1010, 0, 27.00
11:56:53.776 -> 0, -40.00, 0.00, -0.30, 4, 0, 0, 0, 0, -0.0252, -0.0021, -1017, 0, 27.00
11:56:53.809 -> 0, -40.00, 0.00, -0.30, 4, 0, 0, 0, 0, -0.0252, -0.0021, -1017, 0, 27.00
11:56:53.809 -> 0, -40.00, 0.00, -0.30, 4, 0, 0, 0, 0, -0.0253, -0.0021, -1013, 0, 27.00
11:56:53.843 -> 0, -40.00, 0.00, -0.30, 4, 0, 0, 0, 0, -0.0253, -0.0021, -1013, 0, 27.00
11:56:53.876 -> 0, -40.00, 0.00, -0.30, 4, 0, 0, 0, 0, -0.0253, -0.0021, -1013, 0, 27.00
11:56:53.876 -> 0, -40.00, 0.00, -0.30, 4, 0, 0, 0, 0, -0.0253, -0.0021, -1014, 0, 27.00
11:56:53.909 -> 0, -40.00, 0.00, -0.30, 4, 0, 0, 0, 0, -0.0253, -0.0021, -1014, 0, 27.00
11:56:53.909 -> 0, -40.00, 0.00, -0.30, 4, 0, 0, 0, 0, -0.0253, -0.0021, -1014, 0, 27.00
11:56:53.942 -> 0, -40.00, 0.00, -0.30, 4, 0, 0, 0, 0, -0.0253, -0.0021, -1014, 0, 27.00
11:56:53.975 -> 0, -40.00, 0.00, -0.30, 4, 0, 0, 0, 0, -0.0253, -0.0021, -1013, 0, 27.00
11:56:53.975 -> 0, -40.00, 0.00, -0.30, 4, 0, 0, 0, 0, -0.0253, -0.0021, -1014, 0, 27.00
11:56:54.008 -> 0, -40.00, 0.00, -0.30, 4, 0, 0, 0, 0, -0.0254, -0.0020, -1014, 0, 27.00
11:56:54.042 -> 0, -40.00, 0.00, -0.30, 4, 0, 0, 0, 0, -0.0254, -0.0020, -1014, 0, 27.00
11:56:54.042 -> 0, -40.00, 0.00, -0.30, 4, 0, 0, 0, 0, -0.0254, -0.0020, -1014, 0, 27.00
11:56:54.075 -> 0, -40.00, 0.00, -0.30, 4, 0, 0, 0, 0, -0.0254, -0.0020, -1014, 0, 27.00
11:56:54.108 -> 0, -40.00, 0.00, -0.30, 4, 0, 0, 0, 0, -0.0254, -0.0020, -1013, 0, 27.00
11:56:54.108 -> 0, -40.00, 0.00, -0.30, 4, 0, 0, 0, 0, -0.0254, -0.0020, -1013, 0, 27.00
11:56:54.141 -> 0, -40.00, 0.00, -0.30, 4, 0, 0, 0, 0, -0.0254, -0.0020, -1015, 0, 27.00
11:56:54.141 -> 0, -40.00, 0.00, -0.30, 4, 0, 0, 0, 0, -0.0255, -0.0021, -1015, 0, 27.00
11:56:54.174 -> 0, -40.00, 0.00, -0.30, 4, 0, 0, 0, 0, -0.0255, -0.0021, -1012, 0, 27.00
11:56:54.207 -> 0, -40.00, 0.00, -0.30, 4, 0, 0, 0, 0, -0.0255, -0.0021, -1012, 0, 27.00
11:56:54.207 -> 0, -40.00, 0.00, -0.30, 4, 0, 0, 0, 0, -0.0255, -0.0021, -1012, 0, 27.00
11:56:54.241 -> 0, -40.00, 0.00, -0.30, 4, 0, 0, 0, 0, -0.0255, -0.0021, -1015, 0, 27.00
11:56:54.274 -> 0, -40.00, 0.00, -0.30, 4, 0, 0, 0, 0, -0.0255, -0.0021, -1015, 0, 26.00
11:56:54.274 -> 0, -40.00, 0.00, -0.30, 4, 0, 0, 0, 0, -0.0255, -0.0021, -1015, 0, 26.00
11:56:54.307 -> 0, -40.00, 0.00, -0.30, 4, 0, 0, 0, 0, -0.0255, -0.0021, -1014, 0, 26.00
11:56:54.307 -> 0, -40.00, 0.00, -1.30, 4, 0, 0, 0, 0, -0.0254, -0.0021, -1014, 0, 26.00
11:56:54.340 -> 0, -40.00, 0.00, -1.30, 4, 0, 0, 0, 0, -0.0254, -0.0021, -1016, 0, 26.00
11:56:54.373 -> 0, -40.00, 0.00, -1.30, 4, 0, 0, 0, 0, -0.0254, -0.0021, -1016, 0, 26.00
11:56:54.373 -> 0, -40.00, 0.00, -1.30, 4, 0, 0, 0, 0, -0.0254, -0.0021, -1012, 0, 26.00
11:56:54.406 -> 0, -40.00, 0.00, -1.30, 4, 0, 0, 0, 0, -0.0254, -0.0021, -1012, 0, 26.00
11:56:54.439 -> 0, -40.00, 0.00, -1.30, 4, 0, 0, 0, 0, -0.0254, -0.0021, -1014, 0, 26.00
11:56:54.439 -> 0, -40.00, 0.00, -1.30, 4, 0, 0, 0, 0, -0.0254, -0.0021, -1014, 0, 26.00
11:56:54.473 -> 0, -40.00, 0.00, -1.30, 4, 0, 0, 0, 0, -0.0254, -0.0021, -1013, 0, 26.00
11:56:54.506 -> 0, -40.00, 0.00, -1.30, 4, 0, 0, 0, 0, -0.0255, -0.0021, -1013, 0, 26.00
11:56:54.506 -> 0, -40.00, 0.00, -1.30, 4, 0, 0, 0, 0, -0.0255, -0.0021, -1013, 0, 26.00
11:56:54.539 -> 0, -40.00, 0.00, -1.30, 4, 0, 0, 0, 0, -0.0255, -0.0021, -1015, 0, 26.00
11:56:54.539 -> 0, -40.00, 0.00, -1.30, 4, 0, 0, 0, 0, -0.0255, -0.0021, -1015, 0, 27.00
11:56:54.572 -> 0, -40.00, 0.00, -1.30, 4, 0, 0, 0, 0, -0.0255, -0.0021, -1014, 0, 27.00
11:56:54.605 -> 0, -40.00, 0.00, -1.30, 4, 0, 0, 0, 0, -0.0255, -0.0021, -1014, 0, 27.00
11:56:54.605 -> 0, -40.00, 0.00, -1.30, 4, 0, 0, 0, 0, -0.0255, -0.0021, -1012, 0, 27.00
11:56:54.639 -> 0, -40.00, 0.00, -0.30, 4, 0, 0, 0, 0, -0.0255, -0.0021, -1012, 0, 27.00
11:56:54.672 -> 0, -40.00, 0.00, -0.30, 4, 0, 0, 0, 0, -0.0255, -0.0021, -1012, 0, 27.00
11:56:54.672 -> 0, -40.00, 0.00, -0.30, 4, 0, 0, 0, 0, -0.0255, -0.0021, -1015, 0, 27.00
11:56:54.705 -> 0, -40.00, 0.00, -0.30, 4, 0, 0, 0, 0, -0.0255, -0.0021, -1015, 0, 27.00
11:56:54.705 -> 0, -40.00, 0.00, -0.30, 4, 0, 0, 0, 0, -0.0255, -0.0021, -1015, 0, 27.00
11:56:54.738 -> 0, -40.00, 0.00, -0.30, 4, 0, 0, 0, 0, -0.0255, -0.0021, -1014, 0, 27.00
11:56:54.771 -> 0, -40.00, 0.00, -0.30, 4, 0, 0, 0, 0, -0.0255, -0.0021, -1014, 0, 27.00
11:56:54.771 -> 0, -40.00, 0.00, -0.30, 4, 0, 0, 0, 0, -0.0255, -0.0022, -1014, 0, 27.00
11:56:54.804 -> 0, -40.00, 0.00, -0.30, 4, 0, 0, 0, 0, -0.0255, -0.0022, -1014, 0, 27.00
11:56:54.838 -> 0, -40.00, 0.00, -0.30, 4, 0, 0, 0, 0, -0.0255, -0.0022, -1017, 0, 27.00
11:56:54.838 -> 0, -40.00, 0.00, -0.30, 4, 0, 0, 0, 0, -0.0255, -0.0022, -1017, 0, 27.00
11:56:54.871 -> 0, -40.00, 0.00, -0.30, 4, 0, 0, 0, 0, -0.0255, -0.0022, -1012, 0, 27.00
11:56:54.904 -> 0, -40.00, 0.00, -0.30, 4, 0, 0, 0, 0, -0.0255, -0.0022, -1012, 0, 27.00
11:56:54.904 -> 0, -40.00, 0.00, -0.30, 4, 0, 0, 0, 0, -0.0255, -0.0021, -1013, 0, 27.00
11:56:54.937 -> 0, -40.00, 0.00, -0.30, 4, 0, 0, 0, 0, -0.0255, -0.0021, -1014, 0, 27.00
11:56:54.937 -> 0, -40.00, 0.00, -0.30, 4, 0, 0, 0, 0, -0.0255, -0.0021, -1014, 0, 27.00
11:56:54.970 -> 0, -40.00, 0.00, -0.30, 4, 0, 0, 0, 0, -0.0255, -0.0021, -1014, 0, 27.00
11:56:55.004 -> 0, -40.00, 0.00, -0.30, 4, 0, 0, 0, 0, -0.0255, -0.0021, -1014, 0, 26.00
11:56:55.004 -> 0, -40.00, 0.00, -0.30, 4, 0, 0, 0, 0, -0.0255, -0.0021, -1013, 0, 26.00
11:56:55.037 -> 0, -40.00, 0.00, -1.30, 4, 0, 0, 0, 0, -0.0255, -0.0021, -1013, 0, 26.00
11:56:55.070 -> 0, -40.00, 0.00, -1.30, 4, 0, 0, 0, 0, -0.0255, -0.0021, -1013, 0, 26.00
11:56:55.070 -> 0, -40.00, 0.00, -1.30, 4, 0, 0, 0, 0, -0.0255, -0.0021, -1013, 0, 26.00
11:56:55.103 -> 0, -40.00, 0.00, -1.30, 4, 0, 0, 0, 0, -0.0255, -0.0021, -1015, 0, 26.00
11:56:55.136 -> 0, -40.00, 0.00, -1.30, 4, 0, 0, 0, 0, -0.0255, -0.0021, -1015, 0, 26.00
11:56:55.136 -> 0, -40.00, 0.00, -1.30, 4, 0, 0, 0, 0, -0.0255, -0.0021, -1013, 0, 26.00
11:56:55.169 -> 0, -40.00, 0.00, -1.30, 4, 0, 0, 0, 0, -0.0255, -0.0021, -1013, 0, 26.00
11:56:55.169 -> 0, -40.00, 0.00, -1.30, 4, 0, 0, 0, 0, -0.0255, -0.0021, -1013, 0, 26.00
11:56:55.202 -> 0, -40.00, 0.00, -1.30, 4, 0, 0, 0, 0, -0.0255, -0.0021, -1012, 0, 26.00
11:56:55.236 -> 0, -40.00, 0.00, -1.30, 4, 0, 0, 0, 0, -0.0255, -0.0021, -1014, 0, 26.00
11:56:55.236 -> 0, -40.00, 0.00, -1.30, 4, 0, 0, 0, 0, -0.0255, -0.0021, -1014, 0, 26.00
11:56:55.268 -> 0, -40.00, 0.00, -1.30, 4, 0, 0, 0, 0, -0.0255, -0.0021, -1016, 0, 26.00
11:56:55.302 -> 0, -40.00, 0.00, -1.30, 4, 0, 0, 0, 0, -0.0255, -0.0021, -1016, 0, 26.00
11:56:55.302 -> 0, -40.00, 0.00, -1.30, 4, 0, 0, 0, 0, -0.0255, -0.0021, -1013, 0, 26.00
11:56:55.335 -> 0, -40.00, 0.00, -1.30, 4, 0, 0, 0, 0, -0.0255, -0.0021, -1013, 0, 26.00
11:56:55.368 -> 0, -40.00, 0.00, -1.30, 4, 0, 0, 0, 0, -0.0255, -0.0021, -1014, 0, 26.00
11:56:55.368 -> 0, -40.00, 0.00, -1.30, 4, 0, 0, 0, 0, -0.0255, -0.0021, -1012, 0, 26.00
11:56:55.401 -> 0, -40.00, 0.00, -1.30, 4, 0, 0, 0, 0, -0.0255, -0.0021, -1012, 0, 26.00
11:56:55.401 -> 0, -40.00, 0.00, -1.30, 4, 0, 0, 0, 0, -0.0255, -0.0021, -1013, 0, 26.00
11:56:55.434 -> 0, -40.00, 0.00, -1.30, 4, 0, 0, 0, 0, -0.0256, -0.0021, -1013, 0, 26.00
11:56:55.467 -> 0, -40.00, 0.00, -1.30, 4, 0, 0, 0, 0, -0.0256, -0.0021, -1014, 0, 26.00
11:56:55.467 -> 0, -40.00, 0.00, -1.30, 4, 0, 0, 0, 0, -0.0256, -0.0021, -1014, 0, 27.00
11:56:55.500 -> 0, -40.00, 0.00, -1.30, 4, 0, 0, 0, 0, -0.0256, -0.0021, -1014, 0, 27.00
11:56:55.534 -> 0, -40.00, 0.00, -1.30, 4, 0, 0, 0, 0, -0.0256, -0.0021, -1015, 0, 27.00
11:56:55.534 -> 0, -40.00, 0.00, -0.30, 4, 0, 0, 0, 0, -0.0256, -0.0021, -1012, 0, 27.00
11:56:55.567 -> 0, -40.00, 0.00, -0.30, 4, 0, 0, 0, 0, -0.0257, -0.0021, -1012, 0, 27.00
11:56:55.567 -> 0, -40.00, 0.00, -0.30, 4, 0, 0, 0, 0, -0.0257, -0.0021, -1015, 0, 27.00
11:56:55.600 -> 0, -40.00, 0.00, -0.30, 4, 0, 0, 0, 0, -0.0257, -0.0021, -1015, 0, 27.00
11:56:55.633 -> 0, -40.00, 0.00, -0.30, 4, 0, 0, 0, 0, -0.0257, -0.0021, -1014, 0, 27.00
11:56:55.633 -> 0, -40.00, 0.00, -0.30, 4, 0, 0, 0, 0, -0.0257, -0.0021, -1014, 0, 27.00
11:56:55.666 -> 0, -40.00, 0.00, -0.30, 4, 0, 0, 0, 0, -0.0257, -0.0021, -1014, 0, 27.00
11:56:55.699 -> 0, -40.00, 0.00, -0.30, 4, 0, 0, 0, 0, -0.0257, -0.0021, -1014, 0, 27.00
11:56:55.699 -> 0, -40.00, 0.00, -0.30, 4, 0, 0, 0, 0, -0.0257, -0.0021, -1014, 0, 27.00
11:56:55.732 -> 0, -40.00, 0.00, -0.30, 4, 0, 0, 0, 0, -0.0257, -0.0021, -1014, 0, 27.00
11:56:55.765 -> 0, -40.00, 0.00, -0.30, 4, 0, 0, 0, 0, -0.0257, -0.0021, -1014, 0, 27.00
11:56:55.765 -> 0, -40.00, 0.00, -0.30, 4, 0, 0, 0, 0, -0.0257, -0.0021, -1014, 0, 27.00
11:56:55.799 -> 0, -40.00, 0.00, -0.30, 4, 0, 0, 0, 0, -0.0256, -0.0021, -1015, 0, 27.00
11:56:55.799 -> 0, -40.00, 0.00, -0.30, 4, 0, 0, 0, 0, -0.0256, -0.0021, -1012, 0, 27.00
11:56:55.832 -> 0, -40.00, 0.00, -0.30, 4, 0, 0, 0, 0, -0.0256, -0.0021, -1012, 0, 27.00
11:56:55.865 -> 0, -40.00, 0.00, -0.30, 4, 0, 0, 0, 0, -0.0256, -0.0021, -1016, 0, 27.00
11:56:55.865 -> 0, -40.00, 0.00, -0.30, 4, 0, 0, 0, 0, -0.0256, -0.0021, -1016, 0, 26.00
11:56:55.898 -> 0, -40.00, 0.00, -0.30, 4, 0, 0, 0, 0, -0.0256, -0.0021, -1016, 0, 26.00
11:56:55.931 -> 0, -40.00, 0.00, -0.30, 4, 0, 0, 0, 0, -0.0256, -0.0021, -1014, 0, 26.00
11:56:55.931 -> 0, -40.00, 0.00, -1.30, 4, 0, 0, 0, 0, -0.0256, -0.0021, -1012, 0, 26.00
11:56:55.965 -> 0, -40.00, 0.00, -1.30, 4, 0, 0, 0, 0, -0.0256, -0.0021, -1012, 0, 26.00
11:56:55.998 -> 0, -40.00, 0.00, -1.30, 4, 0, 0, 0, 0, -0.0256, -0.0021, -1013, 0, 26.00
11:56:55.998 -> 0, -40.00, 0.00, -1.30, 4, 0, 0, 0, 0, -0.0256, -0.0021, -1013, 0, 26.00
11:56:56.031 -> 0, -40.00, 0.00, -1.30, 4, 0, 0, 0, 0, -0.0256, -0.0021, -1013, 0, 26.00
11:56:56.031 -> 0, -40.00, 0.00, -1.30, 4, 0, 0, 0, 0, -0.0256, -0.0021, -1013, 0, 26.00
11:56:56.064 -> 0, -40.00, 0.00, -1.30, 4, 0, 0, 0, 0, -0.0256, -0.0021, -1014, 0, 26.00
11:56:56.097 -> 0, -40.00, 0.00, -1.30, 4, 0, 0, 0, 0, -0.0256, -0.0021, -1014, 0, 26.00
11:56:56.097 -> 0, -40.00, 0.00, -1.30, 4, 0, 0, 0, 0, -0.0256, -0.0021, -1014, 0, 26.00
11:56:56.130 -> 0, -40.00, 0.00, -1.30, 4, 0, 0, 0, 0, -0.0256, -0.0021, -1014, 0, 26.00
11:56:56.163 -> 0, -40.00, 0.00, -1.30, 4, 0, 0, 0, 0, -0.0256, -0.0021, -1014, 0, 27.00
11:56:56.163 -> 0, -40.00, 0.00, -1.30, 4, 0, 0, 0, 0, -0.0256, -0.0021, -1013, 0, 27.00
11:56:56.197 -> 0, -40.00, 0.00, -1.30, 4, 0, 0, 0, 0, -0.0256, -0.0021, -1015, 0, 27.00
11:56:56.197 -> 0, -40.00, 0.00, -1.30, 4, 0, 0, 0, 0, -0.0256, -0.0021, -1013, 0, 27.00
11:56:56.230 -> 0, -40.00, 0.00, -0.30, 4, 0, 0, 0, 0, -0.0257, -0.0021, -1013, 0, 27.00
11:56:56.263 -> 0, -40.00, 0.00, -0.30, 4, 0, 0, 0, 0, -0.0257, -0.0021, -1013, 0, 27.00
11:56:56.263 -> 0, -40.00, 0.00, -0.30, 4, 0, 0, 0, 0, -0.0257, -0.0021, -1016, 0, 27.00
11:56:56.296 -> 0, -40.00, 0.00, -0.30, 4, 0, 0, 0, 0, -0.0257, -0.0021, -1013, 0, 27.00
11:56:56.330 -> 0, -40.00, 0.00, -0.30, 4, 0, 0, 0, 0, -0.0257, -0.0021, -1013, 0, 27.00
11:56:56.330 -> 0, -40.00, 0.00, -0.30, 4, 0, 0, 0, 0, -0.0257, -0.0021, -1014, 0, 27.00
11:56:56.363 -> 0, -40.00, 0.00, -0.30, 4, 0, 0, 0, 0, -0.0257, -0.0021, -1014, 0, 27.00
11:56:56.396 -> 0, -40.00, 0.00, -0.30, 4, 0, 0, 0, 0, -0.0257, -0.0021, -1013, 0, 27.00
11:56:56.396 -> 0, -40.00, 0.00, -0.30, 4, 0, 0, 0, 0, -0.0257, -0.0021, -1013, 0, 27.00
11:56:56.429 -> 0, -40.00, 0.00, -0.30, 4, 0, 0, 0, 0, -0.0257, -0.0021, -1014, 0, 27.00
11:56:56.429 -> 0, -40.00, 0.00, -1.30, 4, 0, 0, 0, 0, -0.0257, -0.0021, -1014, 0, 26.00
11:56:56.462 -> 0, -40.00, 0.00, -1.30, 4, 0, 0, 0, 0, -0.0257, -0.0021, -1014, 0, 26.00
11:56:56.495 -> 0, -40.00, 0.00, -1.30, 4, 0, 0, 0, 0, -0.0257, -0.0021, -1014, 0, 26.00
11:56:56.495 -> 0, -40.00, 0.00, -1.30, 4, 0, 0, 0, 0, -0.0257, -0.0021, -1016, 0, 26.00
11:56:56.529 -> 0, -40.00, 0.00, -1.30, 4, 0, 0, 0, 0, -0.0257, -0.0022, -1016, 0, 26.00
11:56:56.562 -> 0, -40.00, 0.00, -1.31, 4, 0, 0, 0, 0, -0.0257, -0.0022, -1014, 0, 26.00
11:56:56.562 -> 0, -40.00, 0.00, -1.31, 4, 0, 0, 0, 0, -0.0257, -0.0022, -1014, 0, 26.00
11:56:56.595 -> 0, -40.00, 0.00, -1.31, 4, 0, 0, 0, 0, -0.0257, -0.0022, -1014, 0, 26.00
11:56:56.628 -> 0, -40.00, 0.00, -1.31, 4, 0, 0, 0, 0, -0.0257, -0.0022, -1014, 0, 26.00
11:56:56.628 -> 0, -40.00, 0.00, -1.31, 4, 0, 0, 0, 0, -0.0259, -0.0021, -1014, 0, 26.00
11:56:56.661 -> 0, -40.00, 0.00, -1.31, 4, 0, 0, 0, 0, -0.0259, -0.0021, -1011, 0, 26.00
11:56:56.661 -> 0, -40.00, 0.00, -1.31, 4, 0, 0, 0, 0, -0.0259, -0.0021, -1011, 0, 27.00
11:56:56.694 -> 0, -40.00, 0.00, -1.31, 4, 0, 0, 0, 0, -0.0259, -0.0021, -1011, 0, 27.00
11:56:56.728 -> 0, -40.00, 0.00, -1.31, 4, 0, 0, 0, 0, -0.0259, -0.0021, -1011, 0, 27.00
11:56:56.728 -> 0, -40.00, 0.00, -1.31, 4, 0, 0, 0, 0, -0.0259, -0.0021, -1011, 0, 27.00
11:56:56.761 -> 0, -40.00, 0.00, -0.31, 4, 0, 0, 0, 0, -0.0259, -0.0021, -1011, 0, 27.00
11:56:56.794 -> 0, -40.00, 0.00, -0.31, 4, 0, 0, 0, 0, -0.0259, -0.0021, -1012, 0, 27.00
11:56:56.794 -> 0, -40.00, 0.00, -0.31, 4, 0, 0, 0, 0, -0.0260, -0.0021, -1014, 0, 26.00
11:56:56.827 -> 0, -40.00, 0.00, -0.31, 4, 0, 0, 0, 0, -0.0261, -0.0020, -1015, 0, 26.00
11:56:56.827 -> 0, -40.00, 0.00, -1.31, 4, 0, 0, 0, 0, -0.0261, -0.0020, -1015, 0, 26.00
11:56:56.860 -> 0, -40.00, 0.00, -1.31, 4, 0, 0, 0, 0, -0.0261, -0.0020, -1014, 0, 26.00
11:56:56.893 -> 0, -40.00, 0.00, -1.31, 4, 0, 0, 0, 0, -0.0261, -0.0020, -1014, 0, 26.00
11:56:56.893 -> 0, -40.00, 0.00, -1.31, 4, 0, 0, 0, 0, -0.0261, -0.0020, -1014, 0, 26.00
11:56:56.926 -> 0, -40.00, 0.00, -1.31, 4, 0, 0, 0, 0, -0.0262, -0.0020, -1014, 0, 26.00
11:56:56.960 -> 0, -40.00, 0.00, -1.31, 4, 0, 0, 0, 0, -0.0262, -0.0020, -1012, 0, 26.00
11:56:56.960 -> 0, -40.00, 0.00, -1.31, 4, 0, 0, 0, 0, -0.0262, -0.0020, -1012, 0, 27.00
11:56:56.993 -> 0, -40.00, 0.00, -1.31, 4, 0, 0, 0, 0, -0.0262, -0.0020, -1015, 0, 27.00
11:56:57.026 -> 0, -40.00, 0.00, -1.31, 4, 0, 0, 0, 0, -0.0262, -0.0020, -1013, 0, 27.00
11:56:57.026 -> 0, -40.00, 0.00, -1.31, 4, 0, 0, 0, 0, -0.0262, -0.0019, -1013, 0, 27.00
11:56:57.059 -> 0, -40.00, 0.00, -0.31, 4, 0, 0, 0, 0, -0.0262, -0.0019, -1014, 0, 27.00
11:56:57.059 -> 0, -40.00, 0.00, -0.31, 4, 0, 0, 0, 0, -0.0262, -0.0019, -1014, 0, 26.00
11:56:57.092 -> 0, -40.00, 0.00, -0.31, 4, 0, 0, 0, 0, -0.0262, -0.0019, -1014, 0, 26.00
11:56:57.125 -> 0, -40.00, 0.00, -0.31, 4, 0, 0, 0, 0, -0.0263, -0.0019, -1014, 0, 26.00
11:56:57.125 -> 0, -40.00, 0.00, -0.31, 4, 0, 0, 0, 0, -0.0263, -0.0019, -1014, 0, 26.00
11:56:57.158 -> 0, -40.00, 0.00, -1.31, 4, 0, 0, 0, 0, -0.0263, -0.0019, -1014, 0, 26.00
11:56:57.192 -> 0, -40.00, 0.00, -1.31, 4, 0, 0, 0, 0, -0.0263, -0.0019, -1017, 0, 26.00
11:56:57.192 -> 0, -40.00, 0.00, -1.31, 4, 0, 0, 0, 0, -0.0263, -0.0019, -1017, 0, 26.00

